{
  "A": {
	"1": [
	  "aerial",
	  "aggressive",
	  "ago",
	  "almost",
	  "already",
	  "angry",
	  "anyway",
	  "anywhere",
	  "apart",
	  "aptly",
	  "arrive",
	  "aside",
	  "bad",
	  "bearable",
	  "beauteous",
	  "belly",
	  "big",
	  "broad",
	  "busily",
	  "ceaselessly",
	  "certainly",
	  "common",
	  "confusedly",
	  "constant",
	  "continual",
	  "credible",
	  "curious",
	  "devoutly",
	  "discontinuous",
	  "distinctly",
	  "dramatic",
	  "dreary",
	  "durable",
	  "eagerly",
	  "easier",
	  "enormous",
	  "enviously",
	  "especially",
	  "exactly",
	  "expansive",
	  "expressively",
	  "faintly",
	  "familiar",
	  "famous",
	  "fantastic",
	  "feeble",
	  "foolishly",
	  "forever",
	  "friendly",
	  "frighteningly",
	  "full",
	  "fully",
	  "further",
	  "greater",
	  "guilty",
	  "hardly",
	  "hardscrabble",
	  "healthy",
	  "heavily",
	  "heavy",
	  "higher",
	  "hot",
	  "huge",
	  "impetuous",
	  "important",
	  "impossibly",
	  "inevitable",
	  "injurious",
	  "innocently",
	  "instead",
	  "jealous",
	  "kindly",
	  "kissable",
	  "larger",
	  "lascivious",
	  "lately",
	  "later",
	  "latest",
	  "lest",
	  "likely",
	  "loose",
	  "lordly",
	  "lovely",
	  "low",
	  "magnanimous",
	  "major",
	  "married",
	  "meekest",
	  "merely",
	  "mescal",
	  "metaphysical",
	  "moderately",
	  "moonly",
	  "naked",
	  "nearly",
	  "neglectful",
	  "nightly",
	  "nimble",
	  "nowhere",
	  "often",
	  "olive",
	  "otherwise",
	  "perpetual",
	  "planisphere",
	  "poorly",
	  "possible",
	  "precious",
	  "presently",
	  "probably",
	  "prospective",
	  "proudly",
	  "quickly",
	  "rarely",
	  "really",
	  "saintly",
	  "scarcely",
	  "sharp",
	  "shaven",
	  "silently",
	  "simply",
	  "slowly",
	  "sometimes",
	  "somewhat",
	  "spacious",
	  "special",
	  "stately",
	  "steady",
	  "sternly",
	  "stronger",
	  "sunly",
	  "syllable",
	  "tedious",
	  "tempestuous",
	  "thespian",
	  "third",
	  "tiny",
	  "topiary",
	  "uncertain",
	  "undaunted",
	  "unduly",
	  "unfamiliar",
	  "unfold",
	  "uninvested",
	  "unkissed",
	  "unloved",
	  "unmerciful",
	  "unrequited",
	  "unseen",
	  "unswept",
	  "untouched",
	  "unvaried",
	  "usual",
	  "utterly",
	  "vaguely",
	  "verily",
	  "weak",
	  "wide",
	  "womanly"
	],
	"2": [
	  "alive",
	  "anymore",
	  "bigger",
	  "easy",
	  "equally",
	  "forgive",
	  "generous",
	  "ghastly",
	  "golden",
	  "green",
	  "happy",
	  "hard",
	  "high",
	  "indeed",
	  "lily",
	  "lonely",
	  "newly",
	  "plainly",
	  "plutonian",
	  "purely",
	  "several",
	  "short",
	  "single",
	  "soft",
	  "softly",
	  "sometime",
	  "strong",
	  "suddenly",
	  "sweetly",
	  "terribly",
	  "thereby",
	  "together",
	  "true",
	  "unbroken",
	  "ungainly",
	  "unhappy",
	  "uttered",
	  "vainly",
	  "very",
	  "weary"
	],
	"3": [
	  "also",
	  "best",
	  "clear",
	  "ere",
	  "few",
	  "freely",
	  "gently",
	  "however",
	  "next",
	  "ominous",
	  "quiet",
	  "rich",
	  "separate",
	  "small",
	  "soon",
	  "twice"
	],
	"4": [
	  "close",
	  "dead",
	  "even",
	  "free",
	  "great",
	  "large",
	  "late",
	  "perhaps",
	  "red",
	  "somewhere",
	  "therefore",
	  "thus"
	],
	"5": [
	  "else",
	  "enough",
	  "least",
	  "old",
	  "own",
	  "poor",
	  "same",
	  "surely",
	  "whole"
	],
	"6": [
	  "black",
	  "open",
	  "truly",
	  "white",
	  "why",
	  "wrong",
	  "young"
	],
	"7": [
	  "better",
	  "far",
	  "first",
	  "good",
	  "last",
	  "live",
	  "new",
	  "such",
	  "whose"
	],
	"8": [
	  "alone",
	  "always",
	  "down",
	  "many",
	  "most",
	  "well"
	],
	"9": [
	  "just"
	],
	"10": [
	  "away",
	  "little",
	  "once"
	],
	"11": [
	  "much",
	  "nevermore"
	],
	"12": [
	  "back",
	  "here",
	  "less",
	  "where"
	],
	"14": [
	  "only",
	  "up"
	],
	"15": [
	  "ever"
	],
	"16": [
	  "other",
	  "still"
	],
	"17": [
	  "again",
	  "how",
	  "never",
	  "now"
	],
	"22": [
	  "long"
	],
	"24": [
	  "too",
	  "yet"
	],
	"28": [
	  "then"
	],
	"30": [
	  "there"
	],
	"34": [
	  "more"
	],
	"46": [
	  "when"
	],
	"52": [
	  "so"
	],
	"62": [
	  "not"
	]
  },
  "N": {
	"1": [
	  "1",
	  "3",
	  "abandon",
	  "absent",
	  "abstraction",
	  "abyss",
	  "acceptance",
	  "ache",
	  "actresses",
	  "adore",
	  "adorn",
	  "affection",
	  "affright",
	  "aflame",
	  "afresh",
	  "aftermark",
	  "afterwards",
	  "aidenn",
	  "aim",
	  "airport",
	  "alien",
	  "alley",
	  "allot",
	  "allowance",
	  "alright",
	  "alter",
	  "amethyst",
	  "amidst",
	  "anacreon",
	  "anatomy",
	  "anchors",
	  "anew",
	  "angular",
	  "animal",
	  "ankles",
	  "annoy",
	  "antennae",
	  "anthea",
	  "apparel",
	  "appease",
	  "appetite",
	  "apple",
	  "approach",
	  "approximate",
	  "armada",
	  "array",
	  "arthur",
	  "ascribe",
	  "ash",
	  "ashore",
	  "ate",
	  "attend",
	  "attention",
	  "awhile",
	  "awkward",
	  "bacchus",
	  "backlot",
	  "backs",
	  "badges",
	  "balks",
	  "ballad",
	  "balm",
	  "bank",
	  "banker",
	  "barbed",
	  "barbell",
	  "bark",
	  "barren",
	  "beach",
	  "beak",
	  "beam",
	  "beams",
	  "beat",
	  "beautiful",
	  "becomes",
	  "bedclothes",
	  "beekeeper",
	  "beer",
	  "beggar",
	  "beginnings",
	  "begotten",
	  "beguile",
	  "belief",
	  "bends",
	  "berries",
	  "beside",
	  "betook",
	  "betwixt",
	  "bewitch",
	  "bind",
	  "birdless",
	  "birds",
	  "birth",
	  "bitter",
	  "bitterness",
	  "blank",
	  "bleachers",
	  "bleak",
	  "blest",
	  "bliss",
	  "block",
	  "bloodless",
	  "blouse",
	  "blowing",
	  "blown",
	  "bluff",
	  "blunt",
	  "blur",
	  "bones",
	  "bonnie",
	  "books",
	  "border",
	  "born",
	  "borne",
	  "borrow",
	  "bosom",
	  "bound",
	  "bow",
	  "bowling",
	  "boy",
	  "brasswork",
	  "breadth",
	  "breasts",
	  "breathing",
	  "breed",
	  "bridal",
	  "bride",
	  "brilliant",
	  "broadcast",
	  "broadway",
	  "brought",
	  "buckle",
	  "budding",
	  "buddy",
	  "build",
	  "built",
	  "buoys",
	  "burglar",
	  "butterfly",
	  "buttondown",
	  "buying",
	  "bye",
	  "calendar",
	  "calls",
	  "calm",
	  "camera",
	  "canary",
	  "cancell",
	  "candle",
	  "capers",
	  "care",
	  "careless",
	  "carole",
	  "cary",
	  "case",
	  "cates",
	  "cats",
	  "cave",
	  "celia",
	  "censer",
	  "changes",
	  "charcoal",
	  "charity",
	  "charms",
	  "chase",
	  "cheek",
	  "cheese",
	  "cherished",
	  "chicken",
	  "chid",
	  "chidden",
	  "child",
	  "childhood",
	  "children",
	  "choice",
	  "chokes",
	  "chrome",
	  "churchyard",
	  "civility",
	  "claim",
	  "clatter",
	  "clean",
	  "clementine",
	  "clenched",
	  "clerks",
	  "climate",
	  "climbed",
	  "climes",
	  "clings",
	  "clip",
	  "cloisters",
	  "clothes",
	  "clove",
	  "coal",
	  "coats",
	  "coffee",
	  "coin",
	  "color",
	  "comfort",
	  "commend",
	  "company",
	  "comparative",
	  "compare",
	  "compassion",
	  "compensate",
	  "compete",
	  "concerns",
	  "concomitant",
	  "concordance",
	  "confess",
	  "conjunction",
	  "consolation",
	  "contains",
	  "content",
	  "conversational",
	  "converse",
	  "convulsion",
	  "cony",
	  "cooings",
	  "core",
	  "coughed",
	  "couldn",
	  "countenance",
	  "countenances",
	  "countless",
	  "countries",
	  "couples",
	  "course",
	  "cove",
	  "coy",
	  "cramped",
	  "crave",
	  "craven",
	  "creates",
	  "credit",
	  "crest",
	  "crimes",
	  "crimson",
	  "crocus",
	  "cross",
	  "crossbeam",
	  "crowd",
	  "cruelness",
	  "cuff",
	  "cup",
	  "cups",
	  "curse",
	  "curst",
	  "curtain",
	  "cushion",
	  "cut",
	  "damn",
	  "dance",
	  "danger",
	  "dateless",
	  "dauntless",
	  "days",
	  "deadest",
	  "deal",
	  "dearer",
	  "debars",
	  "deceives",
	  "deceivest",
	  "december",
	  "decorum",
	  "decrees",
	  "deeds",
	  "deeper",
	  "deeply",
	  "defensive",
	  "defer",
	  "defy",
	  "delayed",
	  "delicate",
	  "delude",
	  "demon",
	  "denser",
	  "depart",
	  "depose",
	  "depth",
	  "desert",
	  "deserve",
	  "designate",
	  "designs",
	  "desires",
	  "desolate",
	  "diamond",
	  "didn",
	  "difference",
	  "digestive",
	  "digits",
	  "dignify",
	  "dimensions",
	  "direction",
	  "directions",
	  "dirges",
	  "disappointment",
	  "discourse",
	  "disorder",
	  "distinct",
	  "distraction",
	  "distress",
	  "doesn",
	  "dog",
	  "dole",
	  "doom",
	  "dost",
	  "doubtless",
	  "draw",
	  "drawn",
	  "dreamboats",
	  "dress",
	  "drew",
	  "drift",
	  "drink",
	  "drinking",
	  "drivers",
	  "drop",
	  "drops",
	  "drown",
	  "dryad",
	  "dull",
	  "dumb",
	  "dust",
	  "dwell",
	  "e",
	  "eager",
	  "ears",
	  "earthwards",
	  "east",
	  "eat",
	  "eats",
	  "ebony",
	  "echo",
	  "eden",
	  "effort",
	  "eggs",
	  "elbow",
	  "elements",
	  "eloquence",
	  "eludes",
	  "em",
	  "ember",
	  "emergent",
	  "employ",
	  "endless",
	  "ends",
	  "enlarge",
	  "enmesh",
	  "entertainment",
	  "enthrals",
	  "error",
	  "escape",
	  "esteem",
	  "eve",
	  "evermore",
	  "everyday",
	  "everyone",
	  "excess",
	  "excuse",
	  "expectancy",
	  "expectation",
	  "expense",
	  "explicit",
	  "explosions",
	  "exposures",
	  "fain",
	  "faith",
	  "falls",
	  "families",
	  "farm",
	  "fast",
	  "faster",
	  "father",
	  "fatigue",
	  "favor",
	  "fear",
	  "fears",
	  "feast",
	  "feather",
	  "fervor",
	  "fierce",
	  "fiesta",
	  "fifty",
	  "fight",
	  "figurehead",
	  "fill",
	  "film",
	  "fine",
	  "fireball",
	  "fireflies",
	  "five",
	  "flares",
	  "fleas",
	  "flee",
	  "flip",
	  "flirt",
	  "flood",
	  "flower",
	  "flung",
	  "flutter",
	  "fond",
	  "food",
	  "fools",
	  "footfalls",
	  "footprints",
	  "force",
	  "fore",
	  "foregone",
	  "foreground",
	  "forehead",
	  "foreseen",
	  "foretold",
	  "forgets",
	  "forgiveness",
	  "forgot",
	  "fortitude",
	  "fortune",
	  "found",
	  "fragrant",
	  "frayed",
	  "frequent",
	  "fro",
	  "front",
	  "frosty",
	  "frown",
	  "fuels",
	  "fulfillment",
	  "gain",
	  "garment",
	  "gate",
	  "gates",
	  "gaunt",
	  "gem",
	  "generative",
	  "gentleness",
	  "giant",
	  "giddy",
	  "gift",
	  "gilead",
	  "girl",
	  "glass",
	  "glimpse",
	  "glitters",
	  "goddard",
	  "gods",
	  "godwit",
	  "goodness",
	  "government",
	  "gown",
	  "grain",
	  "grapevine",
	  "grass",
	  "gratitude",
	  "gravity",
	  "gray",
	  "grayish",
	  "grey",
	  "grievances",
	  "grill",
	  "grin",
	  "grind",
	  "gripped",
	  "grow",
	  "grown",
	  "guess",
	  "guise",
	  "habit",
	  "habits",
	  "hall",
	  "hammer",
	  "hangovers",
	  "hangs",
	  "happens",
	  "harbor",
	  "harsh",
	  "harvest",
	  "hast",
	  "haste",
	  "hasten",
	  "haven",
	  "hazel",
	  "heap",
	  "heaped",
	  "heartfelt",
	  "hearts",
	  "heav",
	  "heave",
	  "heavens",
	  "hedge",
	  "held",
	  "hell",
	  "hello",
	  "hemline",
	  "hen",
	  "hesitation",
	  "hidden",
	  "hill",
	  "hills",
	  "hither",
	  "honest",
	  "honeysuckle",
	  "hood",
	  "hopelessness",
	  "hopes",
	  "horace",
	  "horror",
	  "household",
	  "howsoe",
	  "hunger",
	  "hurries",
	  "hurry",
	  "hurty",
	  "hygienic",
	  "ideal",
	  "ill",
	  "images",
	  "impediment",
	  "impossibility",
	  "impostors",
	  "inclement",
	  "incommensurate",
	  "incomplete",
	  "iness",
	  "infinite",
	  "injury",
	  "innocence",
	  "insane",
	  "instrument",
	  "interstice",
	  "invitation",
	  "iridescence",
	  "iron",
	  "jackhammers",
	  "jealousy",
	  "jean",
	  "jest",
	  "jewel",
	  "join",
	  "journeys",
	  "jump",
	  "june",
	  "keen",
	  "key",
	  "kill",
	  "kills",
	  "kindles",
	  "kings",
	  "kitchen",
	  "knat",
	  "knaves",
	  "knee",
	  "knees",
	  "knell",
	  "knuckle",
	  "lace",
	  "lack",
	  "lacks",
	  "laden",
	  "lagoon",
	  "landscape",
	  "language",
	  "lanterns",
	  "larks",
	  "lass",
	  "lattice",
	  "laughs",
	  "lawn",
	  "leads",
	  "lean",
	  "learnt",
	  "leg",
	  "leisure",
	  "lemons",
	  "lend",
	  "lengths",
	  "lens",
	  "lent",
	  "lesser",
	  "lets",
	  "liberty",
	  "likes",
	  "lime",
	  "limits",
	  "line",
	  "lire",
	  "list",
	  "listen",
	  "littler",
	  "livy",
	  "lo",
	  "lock",
	  "loftier",
	  "lombard",
	  "looks",
	  "lord",
	  "lore",
	  "losses",
	  "loth",
	  "loud",
	  "louder",
	  "lovelight",
	  "lovers",
	  "lovingkindness",
	  "loyal",
	  "loyalty",
	  "lute",
	  "luther",
	  "mad",
	  "madam",
	  "mar",
	  "mark",
	  "match",
	  "mayst",
	  "meadow",
	  "means",
	  "measure",
	  "measures",
	  "meek",
	  "melancholy",
	  "mell",
	  "melodie",
	  "melody",
	  "memories",
	  "mercy",
	  "mermaid",
	  "messenger",
	  "mien",
	  "miles",
	  "mindedness",
	  "minds",
	  "mines",
	  "minor",
	  "minutes",
	  "mirage",
	  "mirror",
	  "mirthful",
	  "misfortune",
	  "miss",
	  "moe",
	  "mold",
	  "money",
	  "mood",
	  "moonlight",
	  "mortals",
	  "mourn",
	  "movies",
	  "multiple",
	  "murmurs",
	  "muscles",
	  "muse",
	  "museum",
	  "musk",
	  "mutes",
	  "mutton",
	  "nails",
	  "nameless",
	  "names",
	  "nectar",
	  "neighbor",
	  "neighbors",
	  "nerve",
	  "newfangleness",
	  "nightie",
	  "nightingale",
	  "nine",
	  "noodle",
	  "noon",
	  "note",
	  "ns",
	  "nub",
	  "numb",
	  "number",
	  "nurse",
	  "oak",
	  "oath",
	  "obeisance",
	  "oblique",
	  "obliteration",
	  "occur",
	  "odours",
	  "oft",
	  "oil",
	  "opposition",
	  "ourselves",
	  "outpour",
	  "overbear",
	  "owes",
	  "oyster",
	  "paid",
	  "painting",
	  "palate",
	  "pane",
	  "panties",
	  "paper",
	  "parallel",
	  "pards",
	  "parrot",
	  "partridge",
	  "passing",
	  "passion",
	  "passionate",
	  "passions",
	  "pastry",
	  "pat",
	  "pattern",
	  "paulette",
	  "pauses",
	  "payed",
	  "peace",
	  "pearls",
	  "pennies",
	  "persever",
	  "perspective",
	  "petal",
	  "petticoat",
	  "pheasant",
	  "phone",
	  "phonecard",
	  "pick",
	  "picks",
	  "pigweed",
	  "pin",
	  "pines",
	  "pipes",
	  "pitch",
	  "placid",
	  "plastic",
	  "plate",
	  "pleasant",
	  "pleasures",
	  "plume",
	  "pocket",
	  "point",
	  "poke",
	  "poles",
	  "pooley",
	  "porter",
	  "possibility",
	  "poverty",
	  "power",
	  "practice",
	  "prayer",
	  "precedence",
	  "precise",
	  "predictability",
	  "predilection",
	  "presence",
	  "present",
	  "press",
	  "prinked",
	  "prize",
	  "problem",
	  "profess",
	  "promise",
	  "promises",
	  "proof",
	  "proofs",
	  "prosy",
	  "protective",
	  "proud",
	  "prove",
	  "prow",
	  "puddle",
	  "purity",
	  "purple",
	  "purpose",
	  "purse",
	  "pursue",
	  "quaint",
	  "queen",
	  "quick",
	  "quicken",
	  "quit",
	  "radiator",
	  "radio",
	  "rage",
	  "rail",
	  "ran",
	  "range",
	  "ravel",
	  "raw",
	  "ray",
	  "read",
	  "reason",
	  "reasons",
	  "recede",
	  "receivest",
	  "recite",
	  "recompense",
	  "recover",
	  "reed",
	  "refusest",
	  "regard",
	  "regret",
	  "relation",
	  "relevancy",
	  "relieve",
	  "reluctance",
	  "reluctant",
	  "remain",
	  "remind",
	  "remote",
	  "rend",
	  "rent",
	  "repay",
	  "reply",
	  "representative",
	  "resplendent",
	  "respond",
	  "rest",
	  "restaurant",
	  "restor",
	  "reveal",
	  "reward",
	  "ribbands",
	  "riches",
	  "riddles",
	  "ridge",
	  "rights",
	  "ringlets",
	  "rings",
	  "rise",
	  "risk",
	  "rivers",
	  "robb",
	  "rocks",
	  "rolls",
	  "rope",
	  "ruby",
	  "ruff",
	  "rugs",
	  "ruin",
	  "rumor",
	  "ry",
	  "sailor",
	  "saint",
	  "saintliness",
	  "saints",
	  "salad",
	  "sands",
	  "sane",
	  "sang",
	  "sank",
	  "sauce",
	  "savants",
	  "scar",
	  "scares",
	  "scars",
	  "science",
	  "scratch",
	  "season",
	  "seat",
	  "seconds",
	  "seed",
	  "seem",
	  "seldom",
	  "selfsame",
	  "send",
	  "sense",
	  "sequoia",
	  "seraphim",
	  "serve",
	  "sessions",
	  "sets",
	  "seven",
	  "sewn",
	  "sex",
	  "shade",
	  "shaken",
	  "shallow",
	  "shame",
	  "shelter",
	  "shiny",
	  "ship",
	  "shoe",
	  "shoed",
	  "shoes",
	  "shorn",
	  "shoulder",
	  "shower",
	  "shows",
	  "shrubs",
	  "shudder",
	  "shuffle",
	  "shutter",
	  "shyness",
	  "sicken",
	  "sighs",
	  "sign",
	  "signal",
	  "silken",
	  "simpler",
	  "simplicity",
	  "sin",
	  "sinew",
	  "sinking",
	  "sister",
	  "sit",
	  "six",
	  "skeletons",
	  "sketch",
	  "skin",
	  "skirt",
	  "slave",
	  "sleeve",
	  "sleeves",
	  "slumber",
	  "slushy",
	  "smart",
	  "smiles",
	  "smooths",
	  "smutty",
	  "snakes",
	  "sniff",
	  "sobbed",
	  "socks",
	  "solve",
	  "sombre",
	  "someone",
	  "son",
	  "sooth",
	  "soothe",
	  "sore",
	  "sorrows",
	  "souls",
	  "sounds",
	  "soup",
	  "south",
	  "space",
	  "sparks",
	  "spatter",
	  "speak",
	  "speech",
	  "speed",
	  "spend",
	  "spies",
	  "spill",
	  "spites",
	  "spoil",
	  "sports",
	  "spotless",
	  "spouse",
	  "sprays",
	  "spread",
	  "springs",
	  "sprung",
	  "spurt",
	  "stag",
	  "stain",
	  "stalks",
	  "stalls",
	  "start",
	  "state",
	  "statues",
	  "stayed",
	  "stays",
	  "steel",
	  "step",
	  "stern",
	  "stick",
	  "stiff",
	  "stoic",
	  "stomacher",
	  "stone",
	  "stoop",
	  "stop",
	  "storm",
	  "stormy",
	  "stove",
	  "strain",
	  "strands",
	  "strangers",
	  "strawberries",
	  "strewn",
	  "strive",
	  "stung",
	  "substance",
	  "sufferest",
	  "sum",
	  "summon",
	  "sung",
	  "suns",
	  "sunset",
	  "sup",
	  "surcease",
	  "surprise",
	  "sweater",
	  "sweeter",
	  "sweetest",
	  "swept",
	  "swerve",
	  "swirl",
	  "switch",
	  "swung",
	  "system",
	  "tacitus",
	  "tall",
	  "tallow",
	  "tame",
	  "tap",
	  "tart",
	  "taught",
	  "teach",
	  "teeth",
	  "telephone",
	  "tempter",
	  "tenant",
	  "tenderness",
	  "tension",
	  "terminal",
	  "terrors",
	  "testament",
	  "th",
	  "thank",
	  "thanked",
	  "thanks",
	  "thefts",
	  "theirs",
	  "themself",
	  "thereat",
	  "thereof",
	  "therewithall",
	  "thicker",
	  "thief",
	  "thighs",
	  "thin",
	  "thinner",
	  "thither",
	  "tho",
	  "thorough",
	  "threat",
	  "three",
	  "threw",
	  "thro",
	  "throat",
	  "throats",
	  "thrown",
	  "throws",
	  "thud",
	  "thyself",
	  "tie",
	  "tinsel",
	  "tiptoe",
	  "tits",
	  "tobacco",
	  "tools",
	  "tops",
	  "torch",
	  "towards",
	  "toy",
	  "toys",
	  "tracks",
	  "traffic",
	  "tragedy",
	  "train",
	  "trap",
	  "travel",
	  "traveler",
	  "travels",
	  "treason",
	  "treasury",
	  "trillium",
	  "triumph",
	  "trodden",
	  "trouble",
	  "trust",
	  "tulip",
	  "tumble",
	  "turf",
	  "turns",
	  "twenty",
	  "twill",
	  "type",
	  "tyrranic",
	  "u",
	  "unbe",
	  "uncover",
	  "undergrowth",
	  "understand",
	  "union",
	  "universe",
	  "unload",
	  "unremark",
	  "unstrung",
	  "unus",
	  "unwon",
	  "upstairs",
	  "usest",
	  "utters",
	  "vanish",
	  "verses",
	  "vibrates",
	  "viburnum",
	  "violet",
	  "violets",
	  "virgil",
	  "virgin",
	  "virtue",
	  "visions",
	  "voiceless",
	  "volume",
	  "vowel",
	  "vows",
	  "wail",
	  "wait",
	  "wake",
	  "wakes",
	  "wantonness",
	  "ware",
	  "watch",
	  "wax",
	  "weariness",
	  "weather",
	  "weaves",
	  "wedges",
	  "wedgewood",
	  "weep",
	  "weight",
	  "weights",
	  "welcome",
	  "wert",
	  "wheat",
	  "wheel",
	  "wherefore",
	  "whisper",
	  "whither",
	  "wi",
	  "wider",
	  "wile",
	  "wilful",
	  "win",
	  "winnings",
	  "wise",
	  "wiser",
	  "witch",
	  "woeful",
	  "woes",
	  "woke",
	  "womanhood",
	  "woodcock",
	  "woods",
	  "wooed",
	  "workmen",
	  "worthy",
	  "wound",
	  "wretch",
	  "wrings",
	  "y",
	  "yard",
	  "yea",
	  "yes",
	  "yield",
	  "yourself"
	],
	"2": [
	  "accept",
	  "account",
	  "afar",
	  "afterimage",
	  "ages",
	  "aloneness",
	  "ancient",
	  "angle",
	  "answer",
	  "arias",
	  "asleep",
	  "aster",
	  "autumn",
	  "ball",
	  "bar",
	  "beast",
	  "beating",
	  "beauty",
	  "bed",
	  "beguiling",
	  "bent",
	  "blame",
	  "bleeding",
	  "board",
	  "bodies",
	  "bone",
	  "book",
	  "boots",
	  "boring",
	  "box",
	  "bread",
	  "break",
	  "breath",
	  "breathe",
	  "brief",
	  "bright",
	  "bring",
	  "brow",
	  "burning",
	  "cam",
	  "cast",
	  "cause",
	  "chance",
	  "change",
	  "chest",
	  "chill",
	  "cold",
	  "colder",
	  "contractions",
	  "conversation",
	  "convey",
	  "corner",
	  "crowds",
	  "cry",
	  "dawn",
	  "deceive",
	  "despair",
	  "devil",
	  "dew",
	  "disaster",
	  "doubt",
	  "dove",
	  "drive",
	  "dusk",
	  "ear",
	  "embrace",
	  "enter",
	  "evil",
	  "explore",
	  "fact",
	  "fame",
	  "fare",
	  "farthest",
	  "fashion",
	  "fault",
	  "fields",
	  "fiend",
	  "fiery",
	  "figure",
	  "flame",
	  "flow",
	  "foes",
	  "foot",
	  "forgotten",
	  "form",
	  "forth",
	  "fruit",
	  "future",
	  "gang",
	  "gaze",
	  "ghost",
	  "gifts",
	  "graceful",
	  "grammar",
	  "grant",
	  "grassy",
	  "grave",
	  "grief",
	  "griefs",
	  "grim",
	  "ground",
	  "guest",
	  "guy",
	  "hadst",
	  "half",
	  "hands",
	  "hang",
	  "height",
	  "hence",
	  "highway",
	  "hopeless",
	  "hours",
	  "ice",
	  "isn",
	  "joy",
	  "keeps",
	  "kept",
	  "laugh",
	  "leap",
	  "left",
	  "lessons",
	  "lines",
	  "lit",
	  "living",
	  "loneliness",
	  "manifold",
	  "matter",
	  "mead",
	  "meaning",
	  "meat",
	  "melt",
	  "met",
	  "methought",
	  "midnight",
	  "mile",
	  "minute",
	  "morrow",
	  "mountain",
	  "move",
	  "mystery",
	  "nail",
	  "nay",
	  "ne",
	  "nepenthe",
	  "nerves",
	  "noises",
	  "notice",
	  "nought",
	  "object",
	  "orange",
	  "ours",
	  "pain",
	  "pallas",
	  "pallid",
	  "people",
	  "person",
	  "piece",
	  "pity",
	  "planet",
	  "played",
	  "pleasure",
	  "porch",
	  "praise",
	  "pray",
	  "process",
	  "pure",
	  "quaff",
	  "quench",
	  "question",
	  "rain",
	  "recall",
	  "remembrance",
	  "repeat",
	  "respite",
	  "ring",
	  "roads",
	  "room",
	  "rot",
	  "rough",
	  "rue",
	  "s",
	  "sadness",
	  "sake",
	  "sand",
	  "scent",
	  "secret",
	  "sent",
	  "sever",
	  "shadow",
	  "shake",
	  "shape",
	  "shut",
	  "sixty",
	  "smile",
	  "sod",
	  "songs",
	  "sooner",
	  "sorry",
	  "sought",
	  "spoke",
	  "spring",
	  "stands",
	  "stay",
	  "steal",
	  "stillness",
	  "stock",
	  "street",
	  "string",
	  "stuck",
	  "talk",
	  "taste",
	  "tear",
	  "tempest",
	  "ten",
	  "tender",
	  "themselves",
	  "thirty",
	  "thousand",
	  "today",
	  "token",
	  "tongue",
	  "torn",
	  "toss",
	  "touches",
	  "treat",
	  "try",
	  "understander",
	  "use",
	  "useless",
	  "vain",
	  "view",
	  "voices",
	  "wall",
	  "walls",
	  "want",
	  "waste",
	  "waters",
	  "wave",
	  "waves",
	  "ways",
	  "weel",
	  "wilt",
	  "winds",
	  "wings",
	  "wit",
	  "wither",
	  "woodbine",
	  "wore",
	  "worm",
	  "worn",
	  "wouldn",
	  "wrought",
	  "year",
	  "youth"
	],
	"3": [
	  "anything",
	  "begin",
	  "burden",
	  "caught",
	  "choose",
	  "city",
	  "clasp",
	  "count",
	  "dark",
	  "darkness",
	  "desire",
	  "distant",
	  "divine",
	  "doctor",
	  "ease",
	  "entrance",
	  "everything",
	  "fail",
	  "feels",
	  "feet",
	  "felt",
	  "forget",
	  "fowl",
	  "friends",
	  "gold",
	  "greet",
	  "grieve",
	  "grows",
	  "harder",
	  "heaven",
	  "hid",
	  "himself",
	  "holy",
	  "home",
	  "implore",
	  "itself",
	  "joys",
	  "kisses",
	  "knows",
	  "lady",
	  "lamplight",
	  "lay",
	  "length",
	  "level",
	  "lives",
	  "longer",
	  "longing",
	  "loss",
	  "lover",
	  "maiden",
	  "master",
	  "meant",
	  "memory",
	  "mind",
	  "moan",
	  "moon",
	  "pale",
	  "pay",
	  "perfect",
	  "pond",
	  "quest",
	  "re",
	  "reach",
	  "road",
	  "sat",
	  "saw",
	  "scarce",
	  "seas",
	  "self",
	  "share",
	  "shore",
	  "shoulders",
	  "sigh",
	  "sight",
	  "silent",
	  "silver",
	  "sir",
	  "sound",
	  "spirit",
	  "star",
	  "store",
	  "strange",
	  "stranger",
	  "strength",
	  "thine",
	  "thoughts",
	  "tight",
	  "tonight",
	  "tree",
	  "tune",
	  "twilight",
	  "velvet",
	  "visitor",
	  "walk",
	  "wasn",
	  "wear",
	  "wet",
	  "wild",
	  "windchime",
	  "wish",
	  "won",
	  "wood",
	  "worth",
	  "yellow",
	  "yore"
	],
	"4": [
	  "bear",
	  "blue",
	  "body",
	  "bore",
	  "cool",
	  "crush",
	  "deep",
	  "die",
	  "dreams",
	  "dry",
	  "end",
	  "evenings",
	  "eye",
	  "fair",
	  "fingers",
	  "fire",
	  "floor",
	  "grace",
	  "head",
	  "help",
	  "hour",
	  "house",
	  "human",
	  "hurt",
	  "land",
	  "lie",
	  "lies",
	  "loves",
	  "loy",
	  "moment",
	  "morning",
	  "mouth",
	  "music",
	  "myrna",
	  "myself",
	  "need",
	  "none",
	  "past",
	  "prophet",
	  "put",
	  "radiant",
	  "rare",
	  "salt",
	  "seek",
	  "shine",
	  "simple",
	  "song",
	  "stars",
	  "straight",
	  "times",
	  "truth",
	  "water",
	  "wife",
	  "wine",
	  "women",
	  "write",
	  "years",
	  "yours"
	],
	"5": [
	  "angels",
	  "arms",
	  "art",
	  "bridegroom",
	  "broken",
	  "call",
	  "distance",
	  "enjoy",
	  "fancy",
	  "fate",
	  "feel",
	  "fireworks",
	  "flesh",
	  "flowers",
	  "flown",
	  "friend",
	  "gentle",
	  "hair",
	  "hate",
	  "hear",
	  "husband",
	  "kind",
	  "meet",
	  "others",
	  "quoth",
	  "set",
	  "sorrow",
	  "st",
	  "stand",
	  "sure",
	  "tears",
	  "trees",
	  "unto",
	  "window",
	  "winter",
	  "woe",
	  "woman",
	  "work",
	  "ye"
	],
	"6": [
	  "air",
	  "bust",
	  "death",
	  "don",
	  "doth",
	  "earth",
	  "fall",
	  "oh",
	  "part",
	  "place",
	  "sad",
	  "show",
	  "snow",
	  "something",
	  "spoken",
	  "stood",
	  "tis",
	  "touch",
	  "turn",
	  "ve",
	  "voice",
	  "wind"
	],
	"7": [
	  "ah",
	  "heard",
	  "him",
	  "hold",
	  "hope",
	  "kiss",
	  "knew",
	  "lips",
	  "luve",
	  "men",
	  "right",
	  "silence",
	  "sleep",
	  "words"
	],
	"8": [
	  "dear",
	  "er",
	  "god",
	  "lenore",
	  "look",
	  "man",
	  "sea",
	  "warm"
	],
	"9": [
	  "dream",
	  "life",
	  "sun",
	  "world"
	],
	"10": [
	  "hath",
	  "leaves",
	  "raven",
	  "thing"
	],
	"11": [
	  "face",
	  "name",
	  "soul",
	  "think",
	  "thought",
	  "time",
	  "word"
	],
	"12": [
	  "chamber",
	  "light",
	  "sky",
	  "their",
	  "things"
	],
	"13": [
	  "tell",
	  "till",
	  "way"
	],
	"14": [
	  "d",
	  "day",
	  "eyes",
	  "mine",
	  "sweet"
	],
	"15": [
	  "hand",
	  "nothing",
	  "o"
	],
	"16": [
	  "door",
	  "two"
	],
	"17": [
	  "them"
	],
	"18": [
	  "bird",
	  "his"
	],
	"19": [
	  "heart",
	  "its"
	],
	"22": [
	  "she",
	  "t",
	  "they"
	],
	"23": [
	  "thy"
	],
	"24": [
	  "night"
	],
	"25": [
	  "our",
	  "thou"
	],
	"28": [
	  "us"
	],
	"31": [
	  "he"
	],
	"36": [
	  "thee"
	],
	"38": [
	  "her"
	],
	"42": [
	  "one"
	],
	"49": [
	  "we"
	],
	"58": [
	  "your"
	],
	"83": [
	  "love"
	],
	"89": [
	  "me"
	],
	"96": [
	  "it"
	],
	"127": [
	  "you"
	],
	"133": [
	  "my"
	],
	"272": [
	  "i"
	]
  },
  "O": {
	"1": [
	  "against",
	  "amid",
	  "another",
	  "below",
	  "despite",
	  "per",
	  "unless"
	],
	"2": [
	  "along",
	  "around",
	  "beyond",
	  "either",
	  "neither",
	  "toward",
	  "under"
	],
	"3": [
	  "across",
	  "inside",
	  "outside",
	  "until"
	],
	"4": [
	  "although",
	  "because",
	  "except",
	  "since",
	  "these",
	  "whether"
	],
	"5": [
	  "among",
	  "any",
	  "without"
	],
	"6": [
	  "near",
	  "off"
	],
	"7": [
	  "between",
	  "every",
	  "within"
	],
	"8": [
	  "about",
	  "after",
	  "whom"
	],
	"9": [
	  "those"
	],
	"10": [
	  "nor",
	  "over",
	  "through",
	  "who"
	],
	"11": [
	  "before"
	],
	"12": [
	  "above",
	  "both"
	],
	"13": [
	  "though"
	],
	"16": [
	  "each"
	],
	"17": [
	  "out",
	  "upon",
	  "while"
	],
	"21": [
	  "an"
	],
	"22": [
	  "some"
	],
	"23": [
	  "into"
	],
	"24": [
	  "what"
	],
	"30": [
	  "which"
	],
	"33": [
	  "like"
	],
	"35": [
	  "than"
	],
	"43": [
	  "if",
	  "no"
	],
	"44": [
	  "by"
	],
	"46": [
	  "or"
	],
	"47": [
	  "all",
	  "this"
	],
	"50": [
	  "at"
	],
	"51": [
	  "from"
	],
	"64": [
	  "on"
	],
	"68": [
	  "as",
	  "for"
	],
	"70": [
	  "but"
	],
	"81": [
	  "with"
	],
	"119": [
	  "that"
	],
	"128": [
	  "in"
	],
	"187": [
	  "of"
	],
	"201": [
	  "to"
	],
	"202": [
	  "a"
	],
	"346": [
	  "and"
	],
	"486": [
	  "the"
	]
  },
  "D": {
	"20": [
	  "brisk",
	  "quietly",
	  "slowly"
	],
	"30": [
	  "usually",
	  "nicely"
	],
	"40": [
	  "softly"
	],
	"50": [
	  "always"
	]
  },
  "V": {
	"1": [
	  "accounted",
	  "aching",
	  "add",
	  "adjusting",
	  "agreeing",
	  "altered",
	  "amazed",
	  "angled",
	  "appear",
	  "appears",
	  "arching",
	  "armed",
	  "arranged",
	  "arriving",
	  "attacked",
	  "baffled",
	  "began",
	  "believes",
	  "bemoaned",
	  "blamed",
	  "blaming",
	  "bled",
	  "blistered",
	  "breathed",
	  "calibrating",
	  "celebrated",
	  "changed",
	  "changing",
	  "cheered",
	  "clinging",
	  "closed",
	  "comes",
	  "coming",
	  "complicating",
	  "construed",
	  "correcting",
	  "corrupting",
	  "cracking",
	  "craved",
	  "cried",
	  "croaking",
	  "crossed",
	  "crusted",
	  "cushioned",
	  "dancing",
	  "dared",
	  "dashed",
	  "decided",
	  "delaying",
	  "departed",
	  "descended",
	  "descending",
	  "deserved",
	  "deserving",
	  "despaired",
	  "destined",
	  "displaying",
	  "divining",
	  "doubted",
	  "dragging",
	  "driving",
	  "dropped",
	  "dropping",
	  "drowned",
	  "dwindled",
	  "echoing",
	  "edged",
	  "embraced",
	  "enchanted",
	  "encumbered",
	  "ended",
	  "engaged",
	  "erasing",
	  "erring",
	  "expect",
	  "expended",
	  "explained",
	  "expressing",
	  "extended",
	  "faces",
	  "failing",
	  "falling",
	  "fearing",
	  "fell",
	  "filled",
	  "finding",
	  "flagged",
	  "flapped",
	  "flashed",
	  "flattered",
	  "flicked",
	  "flitting",
	  "floating",
	  "fluttered",
	  "follow",
	  "forsaking",
	  "gathered",
	  "gets",
	  "gives",
	  "gloated",
	  "gloating",
	  "glowing",
	  "got",
	  "grieved",
	  "groaned",
	  "guessing",
	  "guiding",
	  "harboring",
	  "hatching",
	  "hated",
	  "hating",
	  "haunted",
	  "having",
	  "hesitating",
	  "holds",
	  "huddled",
	  "humming",
	  "hundred",
	  "hurtling",
	  "ignoring",
	  "including",
	  "kissed",
	  "kissing",
	  "knowing",
	  "known",
	  "lacking",
	  "languished",
	  "learned",
	  "leaving",
	  "led",
	  "legged",
	  "lied",
	  "lifted",
	  "lightning",
	  "linking",
	  "littered",
	  "locked",
	  "losing",
	  "making",
	  "managed",
	  "marching",
	  "marvelled",
	  "misplaced",
	  "mounted",
	  "moving",
	  "muffled",
	  "murdered",
	  "murmured",
	  "nodded",
	  "nodding",
	  "noticing",
	  "offered",
	  "opened",
	  "outsoaring",
	  "owed",
	  "paired",
	  "parted",
	  "patterned",
	  "peering",
	  "perfumed",
	  "perished",
	  "pinned",
	  "placed",
	  "pondered",
	  "prowling",
	  "pulsing",
	  "pushing",
	  "quartered",
	  "ravelled",
	  "realized",
	  "receiving",
	  "reclining",
	  "rectify",
	  "refraining",
	  "refusing",
	  "reimbursed",
	  "remembered",
	  "remove",
	  "rove",
	  "rustling",
	  "sailed",
	  "sainted",
	  "save",
	  "scarred",
	  "scented",
	  "scrunched",
	  "scuffling",
	  "sculptured",
	  "seated",
	  "seating",
	  "seeming",
	  "seized",
	  "served",
	  "shaking",
	  "shaped",
	  "shattering",
	  "sheathed",
	  "showed",
	  "shown",
	  "shrieked",
	  "sing",
	  "singing",
	  "sleeping",
	  "sliding",
	  "slouched",
	  "sorrowing",
	  "sparkling",
	  "stalking",
	  "starving",
	  "stepped",
	  "stepping",
	  "stopped",
	  "streaming",
	  "stroked",
	  "subsided",
	  "succeed",
	  "summoned",
	  "swallowed",
	  "taken",
	  "tasted",
	  "telling",
	  "thrilled",
	  "throwing",
	  "thrusting",
	  "ticking",
	  "tinkled",
	  "tired",
	  "tossed",
	  "towing",
	  "traced",
	  "trapped",
	  "traveled",
	  "trawling",
	  "treated",
	  "trembled",
	  "tufted",
	  "twisted",
	  "unforgiving",
	  "upstarting",
	  "ushering",
	  "using",
	  "walking",
	  "warning",
	  "watched",
	  "wended",
	  "went",
	  "wheeled",
	  "winged",
	  "winning",
	  "withstanding",
	  "wondering",
	  "wretched",
	  "written"
	],
	"2": [
	  "approaching",
	  "blessed",
	  "burned",
	  "chiding",
	  "creeping",
	  "diverged",
	  "done",
	  "doubting",
	  "dreamed",
	  "dreaming",
	  "dying",
	  "entreating",
	  "expected",
	  "fallen",
	  "feeling",
	  "find",
	  "fixed",
	  "giving",
	  "goes",
	  "guessed",
	  "happen",
	  "hearted",
	  "holding",
	  "keeping",
	  "lasted",
	  "leaning",
	  "lighted",
	  "lining",
	  "lived",
	  "muttered",
	  "napping",
	  "ought",
	  "parting",
	  "peeled",
	  "ragged",
	  "repeating",
	  "risking",
	  "rolled",
	  "run",
	  "saved",
	  "scraping",
	  "seeing",
	  "seeking",
	  "seems",
	  "slow",
	  "smiling",
	  "speaking",
	  "standing",
	  "startled",
	  "thinking",
	  "whispered",
	  "wing"
	],
	"3": [
	  "am",
	  "beloved",
	  "followed",
	  "going",
	  "perched",
	  "rapping",
	  "remember",
	  "sitting",
	  "takes",
	  "trying",
	  "used",
	  "waking",
	  "wandering",
	  "wanted",
	  "watching"
	],
	"4": [
	  "asked",
	  "does",
	  "evening",
	  "gave",
	  "grew",
	  "lose",
	  "loving",
	  "might",
	  "removed",
	  "saying",
	  "seen",
	  "turned",
	  "turning",
	  "waiting",
	  "will",
	  "wished"
	],
	"5": [
	  "says",
	  "tapping",
	  "took",
	  "was"
	],
	"6": [
	  "are",
	  "been",
	  "being",
	  "can",
	  "gone",
	  "keep",
	  "made",
	  "makes",
	  "rose",
	  "seemed"
	],
	"7": [
	  "came",
	  "get",
	  "give",
	  "looked",
	  "lost"
	],
	"8": [
	  "go"
	],
	"9": [
	  "must"
	],
	"10": [
	  "leave",
	  "see",
	  "should",
	  "take"
	],
	"12": [
	  "may"
	],
	"13": [
	  "did",
	  "has",
	  "is",
	  "loved",
	  "said",
	  "would"
	],
	"14": [
	  "say"
	],
	"15": [
	  "let"
	],
	"16": [
	  "had",
	  "make"
	],
	"17": [
	  "know"
	],
	"19": [
	  "could"
	],
	"20": [
	  "shall",
	  "were"
	],
	"22": [
	  "come"
	],
	"23": [
	  "do"
	],
	"37": [
	  "can"
	],
	"43": [
	  "have"
	],
	"326": [
	  "be"
	]
  }
}
