{ "$": { "1": [ "$" ]
},
"CC": { "1": ["either" ]
,"5": [ "quoth" ]
,"15": [ "nor" ]
,"84": [ "or" ]
,"134": [ "but" ]
,"722": [ "and" ]
},
"CD": { "1": ["1" ,
"3",
"five",
"give",
"love",
"mercy",
"million",
"nine",
"six",
"ten",
"three"]
,"2": [ "seven" ]
,"3": [ "o" ]
,"5": [ "thousand" ]
,"25": [ "two" ]
,"59": [ "one" ]
},
"DT": { "1": ["doth" ,
"either",
"neither"]
,"12": [ "another" ,
"these"]
,"15": [ "both" ]
,"16": [ "any" ]
,"23": [ "every" ,
"those"]
,"28": [ "some" ]
,"33": [ "each" ]
,"34": [ "an" ]
,"78": [ "no" ]
,"100": [ "that" ]
,"110": [ "all" ,
"this"]
,"331": [ "a" ]
,"842": [ "the" ]
},
"EX": { "55": ["there" ]
},
"FW": { "1": ["i" ,
"length"]
},
"IN": { "1": ["amid" ,
"antennae",
"awaken",
"awhile",
"beguile",
"below",
"beside",
"blind",
"despite",
"don",
"past",
"per",
"tell",
"therefore",
"think",
"thorough",
"towards",
"underneath",
"unless",
"untill",
"up",
"wear",
"whisper",
"wi"]
,"2": [ "along" ,
"down",
"during",
"nevermore",
"next",
"o",
"off",
"thee",
"unto",
"worth"]
,"3": [ "against" ,
"outside",
"toward"]
,"4": [ "laugh" ,
"love",
"whether"]
,"5": [ "across" ,
"although",
"among",
"behind",
"beyond"]
,"6": [ "around" ,
"under",
"until"]
,"7": [ "since" ]
,"9": [ "except" ]
,"11": [ "within" ]
,"12": [ "between" ]
,"13": [ "inside" ,
"near",
"over"]
,"14": [ "above" ,
"after"]
,"15": [ "without" ]
,"17": [ "before" ,
"though",
"while"]
,"20": [ "out" ]
,"21": [ "so" ]
,"25": [ "upon" ]
,"29": [ "about" ,
"through"]
,"39": [ "into" ]
,"47": [ "because" ]
,"54": [ "than" ]
,"61": [ "if" ]
,"63": [ "like" ]
,"65": [ "by" ]
,"78": [ "at" ]
,"87": [ "as" ]
,"95": [ "from" ]
,"115": [ "on" ]
,"118": [ "that" ]
,"181": [ "for" ]
,"182": [ "with" ]
,"287": [ "in" ]
,"346": [ "of" ]
},
"JJ": { "1": ["aerial" ,
"afresh",
"aggressive",
"alien",
"angular",
"apathy",
"applicable",
"approximate",
"art",
"aware",
"awesome",
"bearable",
"beloved",
"bewitched",
"bible",
"birdless",
"bitter",
"blame",
"blank",
"bleak",
"blessed",
"blinded",
"bloodless",
"blow",
"boastful",
"boring",
"brief",
"broad",
"broken",
"burglar",
"buttondown",
"canary",
"candle",
"careless",
"carole",
"cary",
"cast",
"charcoal",
"cheap",
"cherished",
"coming",
"comparative",
"constant",
"continual",
"continuous",
"conversational",
"crazy",
"credible",
"cross",
"curious",
"current",
"cushioned",
"dateless",
"dauntless",
"defensive",
"delicate",
"desperate",
"destiny",
"difficult",
"digestive",
"discarded",
"discern",
"discontinuous",
"divine",
"domestic",
"doth",
"dramatic",
"dreams",
"dreamy",
"dull",
"dumb",
"durable",
"eager",
"earth",
"east",
"economic",
"eden",
"electric",
"else",
"ember",
"emergent",
"empathy",
"empty",
"encumbered",
"endless",
"enormous",
"entwined",
"envious",
"ere",
"exotic",
"expansive",
"extended",
"faith",
"familiar",
"famous",
"fancy",
"fantastic",
"fateful",
"fear",
"feeble",
"fern",
"fierce",
"fifty",
"figurehead",
"fixed",
"flame",
"fleeting",
"flesh",
"follow",
"forth",
"fortunate",
"fragrant",
"frequent",
"fruit",
"full",
"gathered",
"generative",
"giant",
"giddy",
"glorified",
"god",
"grand",
"grassy",
"gray",
"grayish",
"guilty",
"gullable",
"habit",
"half",
"hardscrabble",
"harsh",
"hath",
"healthy",
"heavy",
"holy",
"hot",
"howsoe",
"htis",
"huge",
"hygienic",
"ideal",
"impeccable",
"impetuous",
"inclement",
"incomplete",
"indian",
"indiviual",
"inevitable",
"infallible",
"inferior",
"infinite",
"injurious",
"innocent",
"intellectual",
"interested",
"intertwined",
"invaluable",
"iterant",
"january",
"key",
"kissable",
"lamplight",
"lascivious",
"lazy",
"left",
"let",
"lifelong",
"lighted",
"likely",
"limpid",
"lived",
"lofty",
"longterm",
"loose",
"loud",
"loved",
"lover",
"loves",
"loyal",
"lust",
"luve",
"magnanimous",
"main",
"major",
"marching",
"married",
"meaning",
"meant",
"meat",
"melancholy",
"mere",
"mescal",
"metaphysical",
"mindedness",
"mirthful",
"modern",
"modest",
"modesty",
"mournful",
"mt",
"multiple",
"narrow",
"natural",
"nature",
"naught",
"ne",
"neglected",
"neglectful",
"nimble",
"north",
"numb",
"o",
"object",
"occasional",
"ok",
"okay",
"olive",
"pallid",
"panic",
"parallel",
"pearly",
"perpetual",
"persever",
"personal",
"perspective",
"pheasant",
"pianissimo",
"pillow",
"plentiful",
"pointless",
"positive",
"possessive",
"possible",
"precious",
"precise",
"pregnant",
"profond",
"profound",
"prosy",
"protective",
"psychological",
"queen",
"rainy",
"raven",
"ready",
"reflected",
"reluctant",
"removed",
"respite",
"resplendent",
"restful",
"rid",
"romantic",
"rough",
"ruby",
"safe",
"sainted",
"saintly",
"salt",
"sane",
"sat",
"satan",
"scarce",
"scattered",
"sculptured",
"sensitive",
"serious",
"sexual",
"shady",
"sharp",
"sheathed",
"shiny",
"shocked",
"shy",
"signal",
"silken",
"silly",
"sixty",
"sleep",
"sleepless",
"slim",
"smart",
"smutty",
"sniff",
"sometime",
"sonata",
"sorrow",
"spacious",
"spoken",
"startled",
"stately",
"steadfast",
"steady",
"steal",
"stern",
"stoic",
"stop",
"stormy",
"strange",
"sunny",
"superior",
"supportive",
"syllable",
"tallow",
"tedious",
"tempestuous",
"temple",
"th",
"thank",
"thankful",
"thespian",
"thin",
"thoughtful",
"thousand",
"tiny",
"tonight",
"topiary",
"total",
"touchy",
"tough",
"travels",
"tree",
"trodden",
"tufted",
"tumble",
"turf",
"twill",
"twist",
"typical",
"tyrranic",
"unbesought",
"understand",
"underwear",
"undeveloped",
"unforgettable",
"unforgiving",
"ungainly",
"uninvested",
"unique",
"united",
"universal",
"universe",
"unkissed",
"unloved",
"unmerciful",
"unparalleled",
"unpremeditated",
"unpretentious",
"unquestionable",
"unrequited",
"unseen",
"unsought",
"unswept",
"untouched",
"unvaried",
"unwon",
"unzipped",
"uphold",
"upstairs",
"upstarting",
"usual",
"utterly",
"vanish",
"veritable",
"violent",
"vivacious",
"vivid",
"wail",
"waking",
"weathered",
"welcome",
"wert",
"whispered",
"wilful",
"wilt",
"wish",
"wished",
"woe",
"woeful",
"womanly",
"wonderful"]
,"2": [ "ah" ,
"ancient",
"beauteous",
"big",
"brilliant",
"celebrated",
"close",
"cold",
"common",
"dark",
"destructive",
"equal",
"er",
"eternal",
"fiery",
"fine",
"forgive",
"friendly",
"frosty",
"generous",
"give",
"glad",
"graceful",
"green",
"grim",
"hidden",
"hopeless",
"impossible",
"jealous",
"joyful",
"late",
"lonely",
"lost",
"mad",
"naked",
"nay",
"next",
"oh",
"ordinary",
"pale",
"peaceful",
"pleasant",
"plutonian",
"quick",
"ragged",
"raw",
"second",
"secret",
"selfless",
"several",
"sick",
"silent",
"slow",
"thine",
"third",
"tired",
"torn",
"touch",
"unbroken",
"uncertain",
"unfamiliar",
"unhappy",
"unkind",
"useless",
"valuable",
"vast",
"velvet",
"weak",
"weary",
"wet",
"wise"]
,"3": [ "alright" ,
"angry",
"bad",
"cool",
"different",
"distant",
"dry",
"easy",
"enough",
"evil",
"few",
"human",
"important",
"light",
"lovely",
"low",
"ominous",
"open",
"present",
"puppy",
"quiet",
"separate",
"ten",
"unto",
"yellow"]
,"4": [ "clear" ,
"golden",
"high",
"past",
"perfect",
"real",
"red",
"right",
"short",
"single",
"small",
"ta",
"thee"]
,"5": [ "dead" ,
"everyday",
"fair",
"gentle",
"large",
"love",
"pure",
"radiant",
"rare",
"rich",
"soft",
"such",
"tight",
"wide",
"wild"]
,"6": [ "alive" ,
"bright",
"dear",
"special"]
,"7": [ "mine" ,
"only",
"poor",
"simple",
"strong"]
,"8": [ "black" ,
"first",
"live",
"young"]
,"9": [ "beautiful" ,
"blue",
"deep"]
,"10": [ "great" ,
"new",
"sad",
"same",
"sure"]
,"11": [ "free" ,
"hard",
"old",
"own",
"thou",
"warm",
"whole",
"wrong"]
,"12": [ "last" ]
,"13": [ "many" ]
,"16": [ "happy" ,
"long",
"true"]
,"17": [ "white" ]
,"19": [ "good" ]
,"21": [ "little" ]
,"22": [ "sweet" ,
"thy"]
,"27": [ "much" ]
,"31": [ "other" ]
,"124": [ "i" ]
},
"JJR": { "1": ["deeper" ,
"easier",
"faster",
"greater",
"happier",
"higher",
"larger",
"lesser",
"littler",
"louder",
"luther",
"stronger",
"whisper",
"wonder",
"worse"]
,"2": [ "bigger" ,
"love"]
,"7": [ "better" ]
,"8": [ "less" ]
,"32": [ "more" ]
},
"JJS": { "1": ["blest" ,
"deadest",
"finest",
"hardest",
"latest",
"lowest",
"meekest",
"sayest",
"sufferest",
"tempest"]
,"2": [ "farthest" ,
"honest",
"lest",
"quest"]
,"3": [ "sweetest" ]
,"4": [ "most" ]
,"6": [ "least" ]
,"11": [ "best" ]
},
"MD": { "1": ["aren" ,
"haven"]
,"2": [ "ought" ,
"wouldn"]
,"4": [ "oh" ]
,"8": [ "don" ,
"might"]
,"11": [ "must" ]
,"18": [ "should" ]
,"24": [ "may" ]
,"30": [ "shall" ]
,"33": [ "could" ]
,"48": [ "would" ]
,"106": [ "will" ]
,"118": [ "can" ]
},
"NN": { "1": ["[" ,
"]",
"abandon",
"aboun",
"absent",
"abyss",
"acceptance",
"acceptation",
"accident",
"act",
"acting",
"action",
"address",
"admiration",
"admit",
"ado",
"adoptee",
"adorn",
"adversity",
"affection",
"affright",
"aflame",
"aftermark",
"age",
"aidenn",
"aim",
"airport",
"albert",
"alley",
"allowance",
"amatory",
"ambition",
"america",
"amethyst",
"amongst",
"anacreon",
"anatomy",
"angel",
"anger",
"animal",
"animation",
"anthea",
"anybody",
"anyone",
"apparel",
"appetite",
"approach",
"aright",
"arm",
"armada",
"arr",
"arranged",
"array",
"arrogant",
"arthur",
"ash",
"attack",
"attention",
"awe",
"bacchus",
"backlot",
"ballad",
"ballet",
"balm",
"band",
"bank",
"banker",
"barbell",
"bare",
"bark",
"beak",
"beam",
"beast",
"beaten",
"beautiful",
"beekeeper",
"beer",
"beggar",
"begin",
"beginning",
"belief",
"beliefs",
"belong",
"bend",
"bent",
"beseech",
"bestow",
"beware",
"bewitch",
"bin",
"birth",
"bit",
"bitterness",
"bittersweet",
"bitterweet",
"block",
"blouse",
"blowing",
"bluff",
"blunt",
"bonnie",
"bookshelf",
"boost",
"border",
"born",
"borrow",
"bosom",
"bottom",
"bound",
"bowling",
"boy",
"brasswork",
"brave",
"breadth",
"breathe",
"breathing",
"breeze",
"brick",
"bridal",
"bride",
"brief",
"bring",
"broadcast",
"brush",
"buckle",
"buddy",
"build",
"burn",
"butterfly",
"button",
"buying",
"buzz",
"bye",
"c",
"calendar",
"cam",
"camera",
"cancell",
"candle",
"car",
"caring",
"case",
"cast",
"cave",
"cedar",
"censer",
"centre",
"charming",
"chase",
"chastity",
"chat",
"cheese",
"chicken",
"chidden",
"childhood",
"choice",
"chrome",
"churchyard",
"civility",
"claim",
"clatter",
"clementine",
"clever",
"climate",
"clip",
"cloud",
"clove",
"coal",
"coffee",
"college",
"colossal",
"colourful",
"complicating",
"concomitant",
"concordance",
"conjunction",
"consolation",
"control",
"convulsion",
"cony",
"cool",
"copernicus",
"core",
"corridor",
"cost",
"countenance",
"counting",
"countless",
"course",
"cove",
"coy",
"crash",
"craven",
"craziness",
"creature",
"credit",
"creed",
"crept",
"crest",
"crimson",
"crocus",
"crossbeam",
"crowds",
"crown",
"cruel",
"cruelness",
"cuff",
"culture",
"cup",
"curse",
"curtain",
"cushion",
"danger",
"daring",
"darwin",
"dearer",
"debate",
"deceive",
"deceivest",
"december",
"decent",
"decorum",
"defy",
"delayed",
"delicate",
"delight",
"depart",
"depiction",
"depose",
"desert",
"deserve",
"designate",
"desolate",
"destiny",
"diamond",
"dictator",
"die",
"difference",
"direction",
"disconnect",
"discourse",
"disorder",
"display",
"distinct",
"distraction",
"distress",
"dog",
"dole",
"dollar",
"don",
"doom",
"dost",
"doth",
"doubting",
"doubtless",
"dread",
"dreaming",
"dreary",
"dress",
"drift",
"drinking",
"driving",
"dro",
"drop",
"dryad",
"dwell",
"e",
"east",
"eat",
"ebony",
"echo",
"eden",
"edible",
"effervescence",
"effort",
"elation",
"elbow",
"eloquence",
"emptiness",
"encouragement",
"endless",
"energy",
"entertainment",
"envy",
"error",
"escape",
"essence",
"esteem",
"eternity",
"eve",
"evermore",
"everyone",
"excess",
"excitement",
"excuse",
"expectancy",
"expectation",
"expense",
"expressing",
"fail",
"fair",
"faith",
"fantasy",
"farewell",
"farm",
"fast",
"fatigue",
"favor",
"favourite",
"feather",
"feeblest",
"feel",
"female",
"fiesta",
"fight",
"figure",
"file",
"film",
"fireball",
"fireworks",
"flame",
"flash",
"flirt",
"flood",
"flutter",
"fog",
"fond",
"fondness",
"food",
"force",
"fore",
"foreground",
"forehead",
"foretold",
"forget",
"forgiveness",
"fortitude",
"found",
"fountain",
"freud",
"friendship",
"fuel",
"fulfillment",
"g",
"game",
"garden",
"gate",
"gaunt",
"gem",
"giggling",
"gilead",
"gita",
"give",
"glance",
"glass",
"gleaming",
"glowing",
"go",
"goddard",
"gogh",
"good",
"goodbye",
"goodness",
"government",
"grapevine",
"grassy",
"gratitude",
"green",
"grey",
"griefs",
"grill",
"grin",
"ground",
"grow",
"grown",
"guess",
"guide",
"guiding",
"guilt",
"guise",
"hammer",
"handsome",
"harbor",
"hard",
"harvest",
"haste",
"hazel",
"health",
"heap",
"heartache",
"heartfelt",
"heat",
"heathrow",
"heav",
"hedge",
"height",
"hemline",
"hen",
"hesitation",
"hid",
"hill",
"history",
"hither",
"hold",
"holding",
"hollow",
"holy",
"honest",
"honeysuckle",
"hood",
"hopelessness",
"horace",
"horror",
"hospital",
"household",
"human",
"humanity",
"humility",
"hunger",
"hurry",
"hurty",
"ill",
"image",
"impediment",
"implore",
"impossibility",
"imprint",
"iness",
"inferior",
"infinity",
"injury",
"innocence",
"insane",
"inspiration",
"instrument",
"insult",
"interstice",
"invigoration",
"invitation",
"iridescence",
"isn",
"jealousy",
"jean",
"jennifer",
"jenny",
"jest",
"joseph",
"journeys",
"joys",
"juicy",
"june",
"k",
"key",
"kindness",
"kitchen",
"kitten",
"knat",
"knee",
"knell",
"know",
"knowledge",
"knuckle",
"lace",
"lack",
"laden",
"lagoon",
"landscape",
"lass",
"lattice",
"laughing",
"lawn",
"leap",
"left",
"leg",
"legged",
"leisure",
"lent",
"liberty",
"lie",
"lightning",
"lime",
"line",
"liquefaction",
"list",
"livy",
"lock",
"loftier",
"lombard",
"lost",
"loth",
"lotus",
"lovelight",
"lovingkindness",
"loyalty",
"lute",
"mad",
"magellan",
"magic",
"make",
"making",
"manifold",
"match",
"mayst",
"meadow",
"meanest",
"meaning",
"meant",
"meat",
"meek",
"meet",
"melodie",
"melody",
"melt",
"merge",
"mermaid",
"mess",
"messenger",
"methought",
"mien",
"milky",
"minor",
"mirage",
"misfortune",
"misunderstood",
"mmm",
"moe",
"mold",
"money",
"mood",
"moorland",
"mother",
"murmurs",
"muse",
"museum",
"musk",
"mutton",
"nameless",
"nectar",
"negligence",
"neighbor",
"nerve",
"newfangleness",
"newton",
"nightie",
"nightingale",
"noodle",
"noonday",
"note",
"ns",
"nub",
"number",
"nymphs",
"oak",
"oath",
"obeisance",
"object",
"oblique",
"obliteration",
"ode",
"oh",
"oil",
"okay",
"opening",
"opera",
"opposition",
"ourself",
"ownership",
"oyster",
"p",
"pace",
"pacific",
"painting",
"paired",
"palate",
"pale",
"pallid",
"pane",
"paper",
"paradise",
"parent",
"parrot",
"partaking",
"partiality",
"partner",
"partridge",
"pass",
"passing",
"pastry",
"pat",
"pattern",
"paulette",
"perforce",
"petal",
"phone",
"phonecard",
"photographs",
"picture",
"piety",
"pigweed",
"pillow",
"pin",
"pit",
"pitch",
"placid",
"planisphere",
"plank",
"plant",
"plastic",
"plate",
"plume",
"pocket",
"poems",
"point",
"pollution",
"pool",
"pooley",
"porter",
"possibility",
"posture",
"pound",
"poverty",
"practice",
"praise",
"pray",
"precedence",
"predictability",
"predilection",
"preferentiality",
"present",
"press",
"pretending",
"price",
"prisoner",
"problem",
"proofs",
"prospective",
"providence",
"prow",
"puddle",
"pulse",
"pulsing",
"purcell",
"purple",
"purpose",
"purse",
"pursue",
"quaint",
"quality",
"quantity",
"quest",
"quit",
"quite",
"qur",
"radiator",
"radio",
"rage",
"rail",
"ravel",
"reach",
"ready",
"realism",
"reassurance",
"rebound",
"recall",
"receivest",
"recompense",
"red",
"reed",
"refraining",
"regard",
"regret",
"relation",
"relationship",
"relevancy",
"relief",
"reluctance",
"remainder",
"remove",
"repay",
"repeating",
"reply",
"respite",
"response",
"restaurant",
"restor",
"retribution",
"return",
"review",
"ribs",
"richness",
"ridge",
"rip",
"risk",
"risking",
"robb",
"rollercoaster",
"rope",
"rough",
"rove",
"rude",
"rue",
"rumor",
"run",
"rustling",
"ry",
"s",
"sacrifice",
"sad",
"sailor",
"saint",
"saintliness",
"salad",
"sang",
"sank",
"sauce",
"savour",
"saw",
"scar",
"scarce",
"science",
"scratch",
"scream",
"second",
"seductress",
"seek",
"seem",
"seeming",
"selfsame",
"senseless",
"sent",
"sequoia",
"seraphim",
"set",
"sex",
"shade",
"shake",
"shakespeare",
"shaking",
"shame",
"shape",
"sharing",
"shed",
"shelter",
"ship",
"shoe",
"shoed",
"shone",
"shop",
"shoulder",
"shower",
"shudder",
"shutter",
"shyness",
"sickness",
"sign",
"silent",
"silk",
"simpler",
"simplicity",
"sinew",
"sing",
"sinking",
"slave",
"sleeve",
"slushy",
"smart",
"smartness",
"smell",
"solace",
"sombre",
"someday",
"son",
"sooth",
"sore",
"sorrowing",
"sort",
"soup",
"south",
"spark",
"sparkle",
"spatter",
"speak",
"speed",
"spend",
"spent",
"spinning",
"spoil",
"spot",
"spotless",
"spouse",
"spread",
"spurt",
"st",
"stag",
"stain",
"stalking",
"stand",
"starving",
"stay",
"steal",
"steel",
"stepping",
"stick",
"stiff",
"stomacher",
"stoop",
"stop",
"stove",
"strain",
"stress",
"strewn",
"stung",
"substance",
"suffer",
"sum",
"summer",
"sunset",
"sunshine",
"supreme",
"surcease",
"surrender",
"sweater",
"sweeter",
"swirl",
"swooping",
"swung",
"system",
"t",
"table",
"tacitus",
"tajmahal",
"take",
"tall",
"tame",
"tap",
"teacher",
"telephone",
"tempest",
"tempter",
"tenant",
"tension",
"terminal",
"test",
"testament",
"thereat",
"thereby",
"therewithall",
"thicker",
"thief",
"think",
"thinking",
"thinner",
"thither",
"tho",
"threat",
"thro",
"throat",
"throb",
"thud",
"tie",
"tinsel",
"tiptoe",
"tobacco",
"toll",
"tomb",
"torch",
"towing",
"toy",
"traffic",
"train",
"trap",
"travel",
"traveler",
"treason",
"treasury",
"treat",
"trillium",
"triumph",
"trouble",
"truly",
"tulip",
"twenty",
"twice",
"twist",
"twittering",
"type",
"u",
"undergrowth",
"understanding",
"union",
"universe",
"unremark",
"unstrung",
"unus",
"upon",
"usest",
"van",
"venus",
"verdict",
"verse",
"vessel",
"viburnum",
"vilification",
"villa",
"vineyard",
"violet",
"virgil",
"virgin",
"virtue",
"vitamin",
"voiceless",
"void",
"volume",
"vowel",
"voyage",
"waist",
"wake",
"waking",
"walk",
"waltz",
"wantonness",
"war",
"warning",
"wasn",
"wear",
"weariness",
"weather",
"wedgewood",
"weed",
"weel",
"welcome",
"wet",
"what`s",
"whe",
"wheat",
"whenever",
"whirl",
"whisper",
"whistle",
"whither",
"whole",
"wider",
"wil",
"wild",
"wile",
"witch",
"wither",
"womanhood",
"won",
"wondering",
"woodcock",
"working",
"worthy",
"wound",
"wreath",
"wreck",
"wretch",
"wrist",
"wrung",
"yard",
"yeah",
"yesterday",
"yourself",
"zeal"]
,"2": [ "account" ,
"ache",
"afar",
"afterimage",
"ah",
"aloneness",
"angle",
"apple",
"arias",
"asleep",
"aster",
"back",
"ball",
"beach",
"beat",
"beating",
"become",
"belly",
"blue",
"bluish",
"board",
"book",
"bow",
"box",
"breast",
"brow",
"call",
"can`t",
"caught",
"chance",
"charity",
"chill",
"close",
"coin",
"cold",
"colder",
"color",
"company",
"compare",
"compassion",
"concert",
"content",
"conversation",
"cos",
"creation",
"crowd",
"cry",
"damn",
"dark",
"dawn",
"demon",
"depth",
"devil",
"dew",
"didn",
"disappointment",
"disaster",
"divine",
"dust",
"ear",
"er",
"existence",
"explore",
"fact",
"fame",
"fashion",
"father",
"fear",
"feast",
"fervor",
"fiend",
"flower",
"foot",
"form",
"front",
"fruit",
"fun",
"garment",
"gaze",
"ghost",
"gown",
"grain",
"grammar",
"grant",
"grass",
"greet",
"grief",
"guest",
"guy",
"hadst",
"half",
"harder",
"heard",
"hello",
"hence",
"hide",
"highway",
"ice",
"injustice",
"jail",
"jewel",
"l",
"lamplight",
"laugh",
"lay",
"length",
"loneliness",
"longing",
"lord",
"male",
"mead",
"message",
"midnight",
"moan",
"moonlight",
"nail",
"nepenthe",
"nought",
"orange",
"pallas",
"past",
"perfect",
"petticoat",
"piano",
"piece",
"pity",
"plan",
"planet",
"play",
"pleasure",
"poetry",
"porch",
"prayer",
"process",
"proof",
"proud",
"purity",
"quaff",
"race",
"rain",
"ray",
"re",
"remembrance",
"request",
"ring",
"rot",
"ruin",
"sake",
"scent",
"school",
"season",
"seat",
"seed",
"shadow",
"shallow",
"shine",
"show",
"sister",
"sketch",
"skirt",
"sod",
"somehow",
"sooner",
"sorry",
"space",
"speech",
"spoken",
"state",
"step",
"stillness",
"stock",
"strange",
"stream",
"street",
"sunlight",
"surprise",
"sweetness",
"symphony",
"talent",
"taste",
"tear",
"thank",
"thereof",
"thine",
"thirty",
"thy",
"tight",
"token",
"tongue",
"top",
"toss",
"tragedy",
"try",
"unaware",
"understander",
"vain",
"velvet",
"view",
"want",
"warm",
"warmth",
"waste",
"weight",
"while",
"wing",
"wont",
"woodbine",
"worm",
"worth",
"wrought",
"ye",
"year",
"youth"]
,"3": [ "answer" ,
"autumn",
"baby",
"bar",
"blood",
"bone",
"bore",
"brain",
"bread",
"calm",
"care",
"change",
"cheek",
"comfort",
"conscience",
"corner",
"dance",
"dear",
"desire",
"doctor",
"doesn",
"dove",
"dusk",
"embrace",
"entrance",
"fall",
"fare",
"fault",
"flight",
"fool",
"fowl",
"freedom",
"gentleness",
"glimpse",
"grave",
"gravity",
"hall",
"heaven",
"hell",
"level",
"lit",
"loss",
"lover",
"lust",
"maiden",
"master",
"mile",
"minute",
"morrow",
"mountain",
"move",
"ounce",
"passionate",
"patience",
"pay",
"person",
"poem",
"pond",
"presence",
"promise",
"pure",
"revenge",
"river",
"road",
"salt",
"shore",
"silver",
"sin",
"sir",
"sit",
"skin",
"star",
"stone",
"store",
"storm",
"straight",
"strength",
"string",
"tapping",
"tender",
"tenderness",
"tonight",
"tree",
"trust",
"turn",
"twilight",
"valentine",
"visitor",
"wave",
"windchime",
"wish",
"wit",
"woe",
"wood",
"yore"]
,"4": [ "art" ,
"bliss",
"breath",
"brother",
"burden",
"city",
"crush",
"deeper",
"despair",
"do",
"ease",
"fancy",
"floor",
"future",
"gift",
"gold",
"grace",
"hath",
"heartbeat",
"hour",
"house",
"hurt",
"jesus",
"loy",
"luve",
"mark",
"memory",
"mirror",
"mystery",
"nature",
"need",
"none",
"ocean",
"passion",
"power",
"prophet",
"reason",
"rest",
"romance",
"room",
"sand",
"search",
"self",
"sigh",
"sight",
"sleep",
"sorrow",
"sound",
"spirit",
"today",
"tune",
"wall",
"wife"]
,"5": [ "bridegroom" ,
"child",
"evening",
"eye",
"feeling",
"field",
"forever",
"happiness",
"help",
"husband",
"kiss",
"land",
"language",
"laughter",
"lenore",
"lifetime",
"living",
"look",
"loving",
"mouth",
"o",
"question",
"right",
"sense",
"side",
"spring",
"story",
"ve",
"water",
"window",
"wine"]
,"6": [ "beauty" ,
"bust",
"cause",
"chest",
"darkness",
"doubt",
"flesh",
"girl",
"home",
"lady",
"let",
"measure",
"snow",
"stranger",
"thought",
"till",
"tis",
"touch",
"woman"]
,"7": [ "body" ,
"come",
"fate",
"hair",
"live",
"mine",
"music",
"sadness",
"wind",
"work"]
,"8": [ "bed" ,
"distance",
"hate",
"head",
"joy",
"law",
"moment",
"morning",
"nevermore",
"pain",
"share"]
,"9": [ "death" ,
"friend",
"matter",
"moon",
"peace",
"raven",
"sea",
"silence",
"song",
"sweet",
"winter"]
,"10": [ "earth" ,
"end",
"hope",
"kind",
"name",
"someone"]
,"11": [ "air" ,
"fire",
"god"]
,"12": [ "chamber" ,
"dream",
"one",
"part",
"voice"]
,"13": [ "man" ]
,"14": [ "anything" ,
"mind",
"place",
"truth"]
,"15": [ "everything" ,
"thing"]
,"16": [ "sun" ,
"thou",
"word"]
,"17": [ "something" ]
,"18": [ "bird" ,
"door",
"hand",
"sky",
"smile"]
,"20": [ "light" ]
,"22": [ "face" ]
,"28": [ "thee" ]
,"29": [ "soul" ]
,"31": [ "nothing" ]
,"33": [ "night" ,
"world"]
,"43": [ "day" ]
,"47": [ "time" ]
,"50": [ "life" ]
,"60": [ "way" ]
,"87": [ "heart" ]
,"373": [ "i" ]
,"409": [ "love" ]
},
"NNP": { "1": ["xmas" ]
},
"NNS": { "1": ["accepts" ,
"actions",
"actresses",
"altars",
"ankles",
"answers",
"asks",
"atheists",
"backs",
"badges",
"balks",
"bangles",
"barren",
"bears",
"becomes",
"bedclothes",
"begets",
"beginnings",
"berries",
"bleachers",
"blooms",
"bones",
"books",
"brakes",
"branches",
"breaks",
"breasts",
"brightens",
"brothers",
"buoys",
"burns",
"bursts",
"capers",
"caresses",
"cates",
"cats",
"celebrations",
"celia",
"changes",
"charles",
"charms",
"cheers",
"chokes",
"citizens",
"clerks",
"climes",
"clings",
"clothes",
"clouds",
"coats",
"colours",
"commandments",
"communists",
"compulsions",
"concerns",
"cooings",
"countenances",
"countries",
"counts",
"creates",
"creations",
"creatures",
"crimes",
"cups",
"debars",
"declarations",
"decrees",
"deeds",
"deserts",
"designs",
"desires",
"details",
"diamonds",
"digits",
"dimensions",
"directions",
"dirges",
"disappears",
"dominates",
"doth",
"doves",
"dreamboats",
"drivers",
"earrings",
"earthwards",
"eggs",
"electrons",
"elements",
"ends",
"enhances",
"enthrals",
"equals",
"eve",
"evils",
"explosions",
"exposures",
"expressions",
"exuberances",
"fairylands",
"falls",
"families",
"farts",
"feathers",
"feels",
"fills",
"fireflies",
"flares",
"fleas",
"flows",
"fools",
"footfalls",
"footprints",
"footsteps",
"forces",
"forgets",
"forgot",
"forgotten",
"forlorn",
"fruits",
"fuels",
"galaxies",
"gazes",
"gentlemen",
"glances",
"glitters",
"glows",
"god",
"graces",
"griefs",
"grievances",
"guts",
"habits",
"hangovers",
"hangs",
"happens",
"harkens",
"heads",
"heavens",
"hills",
"hips",
"hugs",
"hurries",
"ignites",
"impostors",
"injuries",
"insects",
"issues",
"jackhammers",
"jacks",
"keeps",
"kills",
"kindles",
"kings",
"knaves",
"knew",
"lacks",
"lanterns",
"larks",
"leaps",
"lemons",
"lengths",
"lens",
"lightens",
"likes",
"lire",
"longings",
"losses",
"mans",
"measures",
"minds",
"mines",
"minutes",
"miracles",
"mortals",
"moses",
"mountains",
"movies",
"muscles",
"mutes",
"nails",
"needs",
"neighbors",
"notes",
"nourishes",
"oceans",
"odours",
"orbs",
"ours",
"ourselves",
"ousters",
"pairs",
"papers",
"parades",
"parallel",
"pards",
"parents",
"passes",
"passions",
"paths",
"pauses",
"payed",
"pearls",
"peers",
"pennies",
"perfumes",
"photos",
"pines",
"pipes",
"places",
"plans",
"pleasures",
"poles",
"praises",
"prays",
"prejudices",
"pressures",
"problems",
"protons",
"questions",
"rationalists",
"reasons",
"recedes",
"revoked",
"ribbands",
"riches",
"riddles",
"rights",
"ringlets",
"rings",
"ripples",
"rocks",
"rugs",
"saints",
"sands",
"savants",
"scars",
"screams",
"seasons",
"seconds",
"sensations",
"senses",
"sessions",
"shocks",
"shoes",
"shows",
"sings",
"skeletons",
"sleeves",
"snakes",
"snares",
"snows",
"socks",
"sounds",
"sparks",
"spies",
"spites",
"sports",
"sprays",
"spreads",
"stalks",
"stalls",
"stands",
"statues",
"stays",
"strands",
"strangers",
"strawberries",
"sunders",
"suns",
"tags",
"talks",
"tares",
"teeth",
"tells",
"terrors",
"thanks",
"thee",
"thefts",
"theirs",
"throats",
"tits",
"toes",
"tongues",
"tools",
"tops",
"toys",
"treads",
"treasures",
"trials",
"ups",
"uses",
"verses",
"vibrates",
"views",
"violets",
"visions",
"wanders",
"warmth",
"wedges",
"weights",
"whisperings",
"winnings",
"wishes",
"woes",
"woods",
"workmen",
"worries",
"wrings",
"yea"]
,"2": [ "beams" ,
"beats",
"bodies",
"boots",
"broken",
"children",
"contractions",
"covers",
"cries",
"deceives",
"downs",
"embraces",
"er",
"features",
"fields",
"foes",
"forms",
"gainers",
"gates",
"gifts",
"gods",
"highs",
"hues",
"images",
"joys",
"knees",
"lands",
"lessons",
"letters",
"lies",
"limits",
"longs",
"lows",
"lungs",
"miles",
"names",
"nerves",
"nights",
"noises",
"panties",
"petals",
"poems",
"rivers",
"roads",
"roses",
"shadows",
"shapes",
"souls",
"springs",
"thighs",
"touches",
"vows",
"wars",
"weeps",
"winds",
"ye",
"yes"]
,"3": [ "ages" ,
"ancients",
"bees",
"birds",
"brings",
"couples",
"ears",
"fears",
"laws",
"lets",
"lines",
"looks",
"neighbours",
"rays",
"smiles",
"songs",
"troubles",
"voices",
"walls",
"waters",
"wings"]
,"4": [ "butterflies" ,
"evenings",
"fingers",
"fireworks",
"friends",
"grows",
"kisses",
"knows",
"lovers",
"loves",
"moments",
"months",
"myrna",
"shoulders",
"waves",
"women"]
,"5": [ "emotions" ,
"feet",
"hopes",
"promises",
"trees",
"yours"]
,"6": [ "angels" ,
"days"]
,"7": [ "hours" ,
"lives",
"men",
"ones",
"others",
"seas"]
,"8": [ "feelings" ,
"thoughts",
"ways"]
,"10": [ "arms" ,
"hands",
"hearts",
"leaves",
"memories"]
,"11": [ "flowers" ,
"years"]
,"12": [ "lips" ,
"people"]
,"13": [ "dreams" ,
"stars",
"tears",
"words"]
,"18": [ "times" ]
,"31": [ "things" ]
,"32": [ "eyes" ]
,"41": [ "i" ]
},
"PDT": { "1": ["forth" ,
"self",
"touch"]
,"4": [ "such" ]
,"29": [ "all" ]
},
"PRP": { "1": ["o" ,
"ours",
"self",
"themself",
"thyself"]
,"2": [ "ourself" ]
,"3": [ "her" ,
"themselves"]
,"5": [ "himself" ,
"yourself"]
,"7": [ "itself" ]
,"9": [ "myself" ]
,"16": [ "him" ]
,"32": [ "them" ]
,"39": [ "she" ,
"they"]
,"54": [ "us" ]
,"66": [ "he" ]
,"146": [ "we" ]
,"209": [ "me" ]
,"231": [ "it" ]
,"618": [ "you" ]
},
"PRP$": { "25": ["their" ]
,"41": [ "its" ]
,"46": [ "her" ,
"his"]
,"72": [ "our" ]
,"190": [ "your" ]
,"343": [ "my" ]
},
"RB": { "1": ["about" ,
"accidentally",
"ago",
"ah",
"anythingelse",
"anyway",
"appear",
"aptly",
"around",
"ashore",
"aside",
"awkward",
"before",
"blindly",
"broadway",
"busily",
"ceaselessly",
"certainly",
"clearly",
"confusedly",
"couldn",
"dearly",
"denser",
"devoutly",
"distinctly",
"doth",
"eagerly",
"elsewhere",
"enviously",
"especially",
"expressively",
"faintly",
"foolishly",
"forth",
"frighteningly",
"fully",
"further",
"hardly",
"heavily",
"honestly",
"immeasurably",
"impossibly",
"individually",
"inside",
"instead",
"lately",
"later",
"lordly",
"love",
"mere",
"merely",
"moderately",
"moonly",
"nature",
"nerve",
"nightly",
"noon",
"nowhere",
"occasionally",
"oh",
"openly",
"otherwise",
"poorly",
"possibly",
"presently",
"pretty",
"probably",
"proudly",
"pure",
"quickly",
"rarely",
"scarcely",
"seldom",
"separately",
"silently",
"simultaneously",
"sometime",
"somewhat",
"sore",
"sternly",
"strangely",
"sunly",
"tearfully",
"thereby",
"thou",
"till",
"ultimately",
"unduly",
"ungainly",
"unknowingly",
"upside",
"vaguely",
"wherefore",
"wisely"]
,"2": [ "already" ,
"anymore",
"anywhere",
"because",
"deep",
"equally",
"eternally",
"everywhere",
"ghastly",
"kindly",
"late",
"lovely",
"maybe",
"nearly",
"nevermore",
"newly",
"plainly",
"purely",
"softly",
"somehow",
"sweetly",
"terribly",
"up",
"vainly",
"verily"]
,"3": [ "freely" ,
"hard",
"indeed",
"innocently",
"lenore",
"lily",
"lonely",
"longer",
"often"]
,"4": [ "almost" ,
"close",
"deeply",
"exactly",
"first",
"gently",
"simply",
"somewhere",
"therefore"]
,"5": [ "apart" ,
"however",
"much",
"no",
"suddenly",
"surely",
"truly"]
,"6": [ "finally" ,
"perhaps",
"sometimes",
"twice",
"very"]
,"7": [ "else" ,
"enough",
"forever",
"o",
"really",
"soon"]
,"8": [ "also" ,
"down",
"far",
"thus"]
,"10": [ "right" ]
,"11": [ "i" ,
"together",
"well"]
,"13": [ "alone" ]
,"14": [ "even" ,
"long"]
,"15": [ "as" ]
,"16": [ "back" ]
,"17": [ "there" ]
,"18": [ "once" ]
,"19": [ "away" ]
,"28": [ "still" ]
,"30": [ "only" ]
,"34": [ "again" ]
,"35": [ "here" ]
,"37": [ "too" ]
,"38": [ "ever" ]
,"41": [ "always" ]
,"42": [ "now" ,
"yet"]
,"52": [ "never" ]
,"53": [ "then" ]
,"57": [ "just" ]
,"120": [ "so" ]
,"201": [ "not" ]
},
"RBR": { "1": ["harder" ,
"wiser"]
,"2": [ "longer" ]
,"5": [ "better" ]
,"7": [ "less" ]
,"26": [ "more" ]
},
"RBS": { "8": ["most" ]
},
"RP": { "1": ["along" ,
"drown",
"thee",
"truth"]
,"3": [ "around" ,
"away"]
,"4": [ "off" ]
,"5": [ "back" ]
,"16": [ "down" ]
,"20": [ "out" ]
,"26": [ "up" ]
},
"TO": { "440": ["to" ]
},
"UH": { "3": ["oh" ]
},
"VB": { "1": ["abstraction" ,
"accomplish",
"add",
"afterwards",
"all",
"allot",
"allow",
"alter",
"amidst",
"annoy",
"appear",
"appease",
"appreciate",
"arch",
"aroun",
"arouse",
"arrive",
"ask",
"astound",
"attend",
"baby",
"beat",
"betwixt",
"bitter",
"blame",
"blind",
"blown",
"boastful",
"borrow",
"both",
"break",
"breath",
"burn",
"burning",
"caress",
"cast",
"celebrate",
"change",
"cheek",
"cherish",
"chid",
"choose",
"clear",
"climb",
"comfort",
"commend",
"compensate",
"compete",
"consume",
"converse",
"crash",
"create",
"cross",
"crowds",
"curse",
"deceive",
"defer",
"desire",
"dignify",
"discern",
"discriminate",
"disregard",
"divine",
"don",
"drink",
"drive",
"dry",
"employ",
"encourage",
"endure",
"enlarge",
"er",
"erase",
"ere",
"evil",
"expect",
"fain",
"fellow",
"fight",
"figure",
"fine",
"fire",
"flax",
"flip",
"fly",
"force",
"forever",
"form",
"fro",
"frown",
"god",
"godwit",
"grace",
"grant",
"grieve",
"ground",
"handle",
"happen",
"hard",
"heal",
"heave",
"hell",
"her",
"honor",
"ignore",
"impress",
"iron",
"jesus",
"join",
"jump",
"keen",
"kept",
"label",
"laugh",
"lay",
"lead",
"lean",
"leap",
"learn",
"lend",
"lie",
"light",
"listen",
"lo",
"madam",
"manifold",
"mar",
"marriage",
"mean",
"meant",
"mell",
"melt",
"midnight",
"moan",
"move",
"multiply",
"name",
"ne",
"none",
"nurse",
"occur",
"offer",
"outpour",
"overbear",
"pass",
"passionate",
"past",
"peel",
"pick",
"pierce",
"poke",
"praise",
"press",
"profess",
"protect",
"prove",
"raise",
"ravel",
"realize",
"recall",
"receive",
"recieve",
"recite",
"rectify",
"rend",
"rent",
"repay",
"respond",
"rest",
"reverse",
"rewind",
"rip",
"rue",
"ruff",
"run",
"s",
"scarce",
"send",
"serve",
"shake",
"shreds",
"shrubs",
"sit",
"sixty",
"slay",
"slumber",
"snap",
"soak",
"solve",
"somehow",
"song",
"soothe",
"sorrows",
"south",
"spill",
"step",
"stops",
"strengthen",
"succeed",
"sup",
"swerve",
"switch",
"teach",
"tear",
"thine",
"thy",
"transform",
"treat",
"trite",
"unbe",
"unfold",
"unload",
"view",
"wake",
"watch",
"wax",
"weel",
"well",
"west",
"wheel",
"whit",
"win",
"wisdom",
"wither",
"woe",
"wore",
"y",
"yell",
"yesteryear",
"yield",
"yours"]
,"2": [ "accept" ,
"ache",
"ah",
"bind",
"broken",
"care",
"cause",
"close",
"confess",
"cope",
"count",
"dance",
"deal",
"depart",
"earth",
"ease",
"end",
"enter",
"face",
"fail",
"fall",
"fill",
"follow",
"greet",
"guide",
"heard",
"heaven",
"hurt",
"imagine",
"kall",
"kill",
"luve",
"mourn",
"notice",
"pray",
"promise",
"quench",
"recover",
"repeat",
"reveal",
"rise",
"save",
"seem",
"set",
"sever",
"sing",
"speak",
"spend",
"spoken",
"st",
"start",
"steal",
"sweet",
"thee",
"travel",
"treasure",
"trust",
"try",
"turn",
"understand",
"use",
"walk",
"wash"]
,"3": [ "begin" ,
"clasp",
"eat",
"forget",
"hang",
"help",
"hide",
"hope",
"mine",
"miss",
"open",
"reach",
"read",
"remain",
"shine",
"stand",
"stop",
"touch",
"ve",
"weep"]
,"4": [ "bear" ,
"become",
"breathe",
"call",
"cry",
"don`t",
"dream",
"flow",
"lose",
"need",
"sleep",
"stay",
"talk",
"think"]
,"5": [ "believe" ,
"put",
"wish"]
,"6": [ "kiss" ,
"look",
"meet",
"write"]
,"7": [ "bring" ,
"die",
"enjoy",
"hate",
"leave",
"live",
"seek",
"wait",
"want"]
,"8": [ "find" ,
"remember",
"show",
"smile",
"till"]
,"12": [ "keep" ]
,"13": [ "hold" ,
"take"]
,"15": [ "have" ,
"hear"]
,"16": [ "come" ]
,"17": [ "feel" ]
,"21": [ "do" ,
"get"]
,"22": [ "go" ]
,"23": [ "know" ,
"say"]
,"26": [ "give" ]
,"28": [ "see" ]
,"29": [ "tell" ]
,"36": [ "make" ]
,"41": [ "let" ]
,"63": [ "i" ]
,"113": [ "love" ]
,"117": [ "be" ]
},
"VBD": { "1": ["accounted" ,
"altered",
"anew",
"angled",
"baffled",
"beast",
"believed",
"bemoaned",
"bent",
"blur",
"bore",
"breed",
"brightened",
"built",
"cared",
"cheered",
"choked",
"clenched",
"confirmed",
"construed",
"craved",
"cried",
"crossed",
"dappled",
"dared",
"decided",
"delight",
"departed",
"descended",
"deserved",
"destroyed",
"died",
"disappeared",
"doesn",
"dreamed",
"drew",
"dropped",
"drowned",
"dwindled",
"enchanted",
"er",
"expended",
"faded",
"flapped",
"flashed",
"fluttered",
"forgot",
"gloated",
"granted",
"guessed",
"happened",
"hast",
"heard",
"height",
"huddled",
"hundred",
"ignored",
"improvised",
"kissed",
"languished",
"lasted",
"learned",
"led",
"littered",
"lord",
"mannered",
"marvelled",
"melt",
"methought",
"misplaced",
"mounted",
"muffled",
"murmured",
"needed",
"nodded",
"offered",
"parted",
"passed",
"pondered",
"pressed",
"prinked",
"provoke",
"provoked",
"quartered",
"realized",
"received",
"remembered",
"removed",
"repulsed",
"revelled",
"ruled",
"salted",
"scarred",
"scented",
"scrunched",
"seams",
"served",
"set",
"showed",
"showered",
"shrieked",
"sky",
"slept",
"slouched",
"slowed",
"smiled",
"sought",
"sowed",
"spoiled",
"st",
"stayed",
"stepped",
"stopped",
"straight",
"stroked",
"stuck",
"summon",
"swallowed",
"threw",
"tinkled",
"told",
"traced",
"uttered",
"waited",
"watched",
"wheeled",
"whispered",
"willed",
"winged",
"woke",
"wore",
"worked",
"wretched"]
,"2": [ "asked" ,
"became",
"belonged",
"bled",
"cherished",
"desired",
"filled",
"followed",
"hearted",
"kept",
"lived",
"meant",
"met",
"muttered",
"peeled",
"sat",
"saved",
"sent",
"shared",
"spoke",
"wanted"]
,"3": [ "began" ,
"caught",
"found",
"held",
"lay",
"locked",
"lost",
"taught"]
,"4": [ "fell" ,
"grew",
"hath",
"left",
"put",
"saw",
"wished",
"won"]
,"5": [ "brought" ,
"seemed",
"thought",
"took",
"turned",
"went"]
,"6": [ "felt" ,
"stood"]
,"7": [ "gave" ,
"used"]
,"8": [ "looked" ,
"loved",
"rose"]
,"9": [ "got" ,
"made"]
,"14": [ "came" ]
,"15": [ "knew" ]
,"20": [ "did" ,
"said"]
,"44": [ "were" ]
,"54": [ "had" ]
,"79": [ "was" ]
},
"VBG": { "1": ["adjusting" ,
"agreeing",
"alluring",
"arching",
"ascending",
"beating",
"believing",
"blaming",
"boring",
"breaking",
"bringing",
"budding",
"calibrating",
"caressing",
"caring",
"charming",
"choking",
"choosing",
"clinging",
"cloning",
"comparing",
"comprehending",
"correcting",
"corrupting",
"counting",
"cracking",
"cradling",
"creating",
"croaking",
"darling",
"delaying",
"descending",
"deserving",
"displaying",
"disturbing",
"divining",
"doing",
"doubting",
"dragging",
"drawing",
"dropping",
"drowning",
"earring",
"echoing",
"eloping",
"enjoying",
"erasing",
"erring",
"evening",
"expressing",
"failing",
"fearing",
"fighting",
"finding",
"flitting",
"floating",
"flowing",
"flying",
"forsaking",
"frothing",
"gasping",
"getting",
"gliding",
"gloating",
"guessing",
"harboring",
"hatching",
"hesitating",
"hoping",
"humming",
"hurtling",
"ignoring",
"including",
"joining",
"lacking",
"landing",
"laughing",
"laying",
"leaving",
"linking",
"longing",
"love",
"moving",
"nodding",
"noticing",
"outsoaring",
"passing",
"peering",
"prowling",
"puffing",
"pulsating",
"pushing",
"receiving",
"reclining",
"reflecting",
"refusing",
"repeating",
"resting",
"returning",
"revealing",
"risking",
"scuffling",
"seating",
"shattering",
"sleeping",
"sliding",
"sounding",
"sparkling",
"spending",
"stealing",
"stepping",
"streaming",
"talking",
"telling",
"throbbing",
"throwing",
"thrusting",
"ticking",
"tilting",
"touching",
"tracing",
"trawling",
"trembling",
"trusting",
"understanding",
"ushering",
"using",
"waking",
"walking",
"wasting",
"wedding",
"winning",
"withstanding",
"wondering"]
,"2": [ "aching" ,
"approaching",
"arriving",
"asking",
"beguiling",
"bleeding",
"burning",
"changing",
"chiding",
"creeping",
"dancing",
"dreaming",
"encircling",
"ending",
"entreating",
"filling",
"growing",
"hating",
"having",
"keeping",
"kissing",
"leaning",
"lining",
"losing",
"napping",
"parting",
"playing",
"scraping",
"seeking",
"sharing",
"sing",
"starting",
"stroking",
"swaying",
"taking",
"tapping",
"working"]
,"3": [ "coming" ,
"dying",
"feeling",
"lying",
"rapping",
"seeing",
"sitting",
"smiling",
"speaking",
"standing",
"thinking",
"trying",
"wandering"]
,"4": [ "crying" ,
"going",
"holding",
"looking",
"making",
"singing",
"turning",
"wishing"]
,"5": [ "knowing" ,
"saying"]
,"6": [ "falling" ,
"giving",
"waiting"]
,"7": [ "watching" ]
,"9": [ "loving" ]
,"12": [ "being" ]
},
"VBN": { "1": ["amazed" ,
"anointed",
"armed",
"assured",
"attacked",
"barbecued",
"barbed",
"bed",
"bedecked",
"begotten",
"bestowed",
"blamed",
"blistered",
"breathed",
"brightened",
"brought",
"built",
"caught",
"changed",
"chisled",
"climbed",
"closed",
"contented",
"convulsed",
"coughed",
"cramped",
"crusted",
"cultured",
"cut",
"dared",
"dashed",
"decided",
"descended",
"despaired",
"destined",
"died",
"doubted",
"dragged",
"drawn",
"dreamed",
"drowned",
"east",
"eaten",
"edged",
"embraced",
"enchanted",
"ended",
"engaged",
"engraved",
"entwined",
"equipped",
"experienced",
"explained",
"feared",
"filled",
"fixed",
"flagged",
"flattered",
"fled",
"flicked",
"flowed",
"followed",
"foreseen",
"forgotten",
"fortune",
"framed",
"frayed",
"fruit",
"granted",
"grieved",
"gripped",
"groaned",
"guessed",
"hasten",
"hated",
"hatred",
"haunted",
"have",
"heaped",
"heard",
"heaven",
"ignored",
"jilted",
"kiss",
"learned",
"learnt",
"leave",
"left",
"lied",
"lifted",
"lighted",
"listened",
"lived",
"managed",
"measured",
"met",
"murdered",
"nought",
"nursed",
"offered",
"opened",
"overwhelmed",
"owed",
"paid",
"parched",
"passed",
"patterned",
"perfumed",
"perished",
"pinned",
"placed",
"promised",
"ravelled",
"recognized",
"regretted",
"reimbursed",
"roped",
"sailed",
"sealed",
"seated",
"seized",
"sense",
"set",
"shaken",
"shaped",
"shattered",
"shaven",
"shed",
"shorn",
"show",
"shut",
"sight",
"slipped",
"sobbed",
"somehow",
"sought",
"spent",
"sprung",
"squared",
"st",
"startled",
"stolen",
"stored",
"strained",
"stuck",
"subsided",
"suffered",
"summoned",
"sunk",
"swept",
"thanked",
"thrilled",
"tossed",
"transfigured",
"trapped",
"traveled",
"treated",
"trembled",
"twisted",
"undaunted",
"uttered",
"vanished",
"variegated",
"waited",
"wended",
"written"]
,"2": [ "aroused" ,
"blessed",
"born",
"broken",
"burned",
"defined",
"diverged",
"enraptured",
"expected",
"fade",
"fallen",
"lasted",
"love",
"ours",
"past",
"played",
"removed",
"rolled",
"seemed",
"shown",
"smiled",
"spoken",
"tasted",
"wanted"]
,"3": [ "asked" ,
"beloved",
"given",
"got",
"i",
"kept",
"perched",
"shared",
"tired",
"used",
"worn"]
,"4": [ "found" ,
"known",
"thought",
"turned"]
,"5": [ "flown" ]
,"6": [ "done" ,
"felt",
"loved",
"seen",
"taken"]
,"9": [ "come" ,
"meant"]
,"10": [ "lost" ]
,"11": [ "made" ]
,"18": [ "been" ]
,"20": [ "gone" ]
},
"VBP": { "1": ["abuse" ,
"adore",
"adorn",
"allow",
"anymore",
"ascribe",
"ask",
"ate",
"bare",
"bear",
"become",
"believe",
"belong",
"betook",
"borne",
"boy",
"break",
"bring",
"cam",
"can`t",
"care",
"carry",
"cause",
"chaplin",
"cheer",
"clean",
"conceal",
"confoun",
"continue",
"convey",
"count",
"crave",
"cross",
"cuckoo",
"dazzle",
"dead",
"dear",
"deem",
"deep",
"delude",
"deserve",
"didn",
"differ",
"divine",
"doubt",
"draw",
"drink",
"drive",
"e",
"echo",
"em",
"enmesh",
"face",
"fall",
"flame",
"flee",
"flung",
"follow",
"foregone",
"forgo",
"forlorn",
"forth",
"foun",
"frown",
"gain",
"gather",
"get",
"grind",
"grow",
"happen",
"host",
"ill",
"im",
"incline",
"incommensurate",
"insist",
"knew",
"lay",
"let",
"lie",
"light",
"lore",
"mc",
"mock",
"mourn",
"name",
"neither",
"occur",
"oft",
"open",
"own",
"pain",
"pay",
"place",
"play",
"pour",
"prize",
"proceed",
"quicken",
"ran",
"range",
"realize",
"recede",
"refusest",
"relieve",
"relive",
"remind",
"remote",
"representative",
"reward",
"round",
"ruffle",
"run",
"seek",
"seldom",
"send",
"sewn",
"shape",
"shuffle",
"shut",
"sicken",
"sigh",
"sit",
"sleep",
"slowly",
"smile",
"sojourn",
"sorrow",
"sparkle",
"spill",
"spread",
"start",
"stood",
"strive",
"sung",
"surrender",
"tart",
"taste",
"taught",
"tell",
"themself",
"thrown",
"til",
"tree",
"uncover",
"understand",
"unfold",
"wait",
"warmth",
"wasn",
"waste",
"weep",
"welfare",
"wink",
"wooed",
"work",
"worthy",
"wouldn",
"write",
"ye",
"yearn"]
,"2": [ "choose" ,
"couldn",
"describe",
"die",
"doth",
"everyday",
"fill",
"gang",
"grab",
"grieve",
"guys",
"heard",
"hid",
"hide",
"implore",
"keep",
"kiss",
"like",
"lose",
"mean",
"mine",
"recall",
"set",
"show",
"take",
"talk",
"touch",
"try",
"turn"]
,"3": [ "call" ,
"harder",
"leave",
"meet",
"put",
"shine",
"walk",
"wear",
"wish"]
,"4": [ "go" ,
"hold",
"hope",
"imagine",
"stand"]
,"5": [ "remember" ,
"swear"]
,"6": [ "hate" ,
"hear",
"look"]
,"7": [ "come" ,
"give"]
,"8": [ "live" ,
"need"]
,"9": [ "make" ,
"see"]
,"12": [ "don" ,
"feel",
"think"]
,"16": [ "say" ]
,"19": [ "miss" ]
,"20": [ "re" ]
,"25": [ "i" ]
,"27": [ "want" ]
,"31": [ "know" ]
,"37": [ "ve" ]
,"39": [ "do" ]
,"50": [ "am" ]
,"63": [ "have" ]
,"85": [ "love" ]
,"108": [ "are" ]
},
"VBZ": { "1": ["anchors" ,
"appears",
"asks",
"beats",
"begins",
"believes",
"bends",
"blazes",
"bulky",
"calls",
"carries",
"catches",
"chambers",
"chases",
"cloisters",
"contains",
"convey",
"counts",
"creeps",
"curses",
"curst",
"dances",
"dazzles",
"deliberates",
"demands",
"desperatley",
"didn",
"don",
"drops",
"dumps",
"eats",
"excludes",
"explicit",
"faces",
"fires",
"flows",
"hates",
"hath",
"holy",
"hurts",
"ignites",
"joins",
"keeps",
"kisses",
"lacks",
"laughs",
"leads",
"lets",
"lie",
"looks",
"means",
"melts",
"merges",
"misses",
"nourishes",
"opens",
"owes",
"personifies",
"picks",
"poems",
"possesses",
"puts",
"recollects",
"reigns",
"rejects",
"resonates",
"roars",
"rolls",
"runs",
"scares",
"shadows",
"shows",
"sighs",
"sits",
"sky",
"smooths",
"sometime",
"sometimes",
"sounds",
"stands",
"stops",
"thinks",
"throws",
"thy",
"times",
"tracks",
"tugs",
"utters",
"wakes",
"ware",
"wears",
"weaves",
"whispers",
"wipes"]
,"2": [ "bestows" ,
"brightens",
"brings",
"dies",
"feels",
"finds",
"gets",
"holds",
"isn",
"lies",
"lives",
"moves",
"needs",
"sets",
"sustains",
"turns",
"works"]
,"3": [ "burns" ,
"leaves",
"loves",
"touches",
"wants"]
,"4": [ "doesn" ,
"seems",
"wasn"]
,"5": [ "takes" ]
,"6": [ "gives" ]
,"7": [ "says" ]
,"8": [ "comes" ,
"does",
"goes"]
,"11": [ "knows" ]
,"13": [ "i" ]
,"23": [ "makes" ]
,"34": [ "has" ]
,"400": [ "is" ]
},
"WDT": { "1": ["eludes" ,
"what"]
,"47": [ "which" ]
,"57": [ "that" ]
},
"WP": { "15": ["whom" ]
,"39": [ "who" ]
,"72": [ "what" ]
},
"WP$": { "8": ["whose" ]
},
"WRB": { "1": ["ere" ,
"wilt"]
,"3": [ "whenever" ]
,"17": [ "why" ]
,"30": [ "where" ]
,"43": [ "how" ]
,"114": [ "when" ]
 }}
