{"N": {
  "2": [
	"tear"
  ],
  "3": [
	"night",
	"fruit"
  ],
  "5": [
	"area",
	"day"
  ],
  "10": [
	"sun",
	"sky",
	"rock",
	"grass",
	"air",
	"dew"
  ],
  "20": [
	"mountains",
	"tree",
	"leaf",
	"valley",
	"dream",
	"petal"
  ],
  "30": [
	"forest",
	"flower",
	"summit"
  ],
  "40": [
	"view"
  ]
},
  "A": {
	"10": [
	  "tall",
	  "sunny",
	  "extensive",
	  "sumptous",
	  "soaring",
	  "true"
	],
	"20": [
	  "green",
	  "full of life",
	  "fresh",
	  "soft",
	  "fragrant",
	  "hidden"
	],
	"25": [
	  "impossible",
	  "unreal"
	],
	"30": [
	  "colorful",
	  "amazing",
	  "delicate"
	],
	"35": [
	  "breathtaking"
	],
	"40": [
	  "pretty",
	  "gorgeous",
	  "lovely"
	],
	"50": [
	  "beautiful",
	  "wonderful"
	]

  },
  "D": {
	"20": [
	  "brisk",
	  "quietly",
	  "slowly"
	],
	"30": [
	  "usually",
	  "nicely"
	],
	"40": [
	  "softly"
	],
	"50": [
	  "always"
	]
  },
  "V": {
	"10": [
	  "begin",
	  "bend",
	  "blow",
	  "creep"
	],
	"20": [
	  "smell",
	  "be",
	  "dream",
	  "wind"
	],
	"30": [
	  "grow",
	  "lay"
	],
	"35": [
	  "feel"
	],
	"40": [
	  "look",
	  "shine"
	]
  },
  "O": {
	"10": [
	  "with"
	],
	"20": [
	  "as"
	],
	"30": [
	  "or"
	],
	"50": [
	  "and"
	]
  }
}
